Lab3/abs_test/special_unit/sfu_Behavioral/sfu_Behavioral.vcd
$date
	Wed Jan  6 21:15:46 2021
$end
$version
	ModelSim Version 6.5c
$end
$timescale
	1ns
$end
$scope module tb_sfu $end
$scope module UUT $end
$var wire 1 ! IN_A [31] $end
$var wire 1 " IN_A [30] $end
$var wire 1 # IN_A [29] $end
$var wire 1 $ IN_A [28] $end
$var wire 1 % IN_A [27] $end
$var wire 1 & IN_A [26] $end
$var wire 1 ' IN_A [25] $end
$var wire 1 ( IN_A [24] $end
$var wire 1 ) IN_A [23] $end
$var wire 1 * IN_A [22] $end
$var wire 1 + IN_A [21] $end
$var wire 1 , IN_A [20] $end
$var wire 1 - IN_A [19] $end
$var wire 1 . IN_A [18] $end
$var wire 1 / IN_A [17] $end
$var wire 1 0 IN_A [16] $end
$var wire 1 1 IN_A [15] $end
$var wire 1 2 IN_A [14] $end
$var wire 1 3 IN_A [13] $end
$var wire 1 4 IN_A [12] $end
$var wire 1 5 IN_A [11] $end
$var wire 1 6 IN_A [10] $end
$var wire 1 7 IN_A [9] $end
$var wire 1 8 IN_A [8] $end
$var wire 1 9 IN_A [7] $end
$var wire 1 : IN_A [6] $end
$var wire 1 ; IN_A [5] $end
$var wire 1 < IN_A [4] $end
$var wire 1 = IN_A [3] $end
$var wire 1 > IN_A [2] $end
$var wire 1 ? IN_A [1] $end
$var wire 1 @ IN_A [0] $end
$var wire 1 A IN_B [31] $end
$var wire 1 B IN_B [30] $end
$var wire 1 C IN_B [29] $end
$var wire 1 D IN_B [28] $end
$var wire 1 E IN_B [27] $end
$var wire 1 F IN_B [26] $end
$var wire 1 G IN_B [25] $end
$var wire 1 H IN_B [24] $end
$var wire 1 I IN_B [23] $end
$var wire 1 J IN_B [22] $end
$var wire 1 K IN_B [21] $end
$var wire 1 L IN_B [20] $end
$var wire 1 M IN_B [19] $end
$var wire 1 N IN_B [18] $end
$var wire 1 O IN_B [17] $end
$var wire 1 P IN_B [16] $end
$var wire 1 Q IN_B [15] $end
$var wire 1 R IN_B [14] $end
$var wire 1 S IN_B [13] $end
$var wire 1 T IN_B [12] $end
$var wire 1 U IN_B [11] $end
$var wire 1 V IN_B [10] $end
$var wire 1 W IN_B [9] $end
$var wire 1 X IN_B [8] $end
$var wire 1 Y IN_B [7] $end
$var wire 1 Z IN_B [6] $end
$var wire 1 [ IN_B [5] $end
$var wire 1 \ IN_B [4] $end
$var wire 1 ] IN_B [3] $end
$var wire 1 ^ IN_B [2] $end
$var wire 1 _ IN_B [1] $end
$var wire 1 ` IN_B [0] $end
$var wire 1 a OUTPUT [31] $end
$var wire 1 b OUTPUT [30] $end
$var wire 1 c OUTPUT [29] $end
$var wire 1 d OUTPUT [28] $end
$var wire 1 e OUTPUT [27] $end
$var wire 1 f OUTPUT [26] $end
$var wire 1 g OUTPUT [25] $end
$var wire 1 h OUTPUT [24] $end
$var wire 1 i OUTPUT [23] $end
$var wire 1 j OUTPUT [22] $end
$var wire 1 k OUTPUT [21] $end
$var wire 1 l OUTPUT [20] $end
$var wire 1 m OUTPUT [19] $end
$var wire 1 n OUTPUT [18] $end
$var wire 1 o OUTPUT [17] $end
$var wire 1 p OUTPUT [16] $end
$var wire 1 q OUTPUT [15] $end
$var wire 1 r OUTPUT [14] $end
$var wire 1 s OUTPUT [13] $end
$var wire 1 t OUTPUT [12] $end
$var wire 1 u OUTPUT [11] $end
$var wire 1 v OUTPUT [10] $end
$var wire 1 w OUTPUT [9] $end
$var wire 1 x OUTPUT [8] $end
$var wire 1 y OUTPUT [7] $end
$var wire 1 z OUTPUT [6] $end
$var wire 1 { OUTPUT [5] $end
$var wire 1 | OUTPUT [4] $end
$var wire 1 } OUTPUT [3] $end
$var wire 1 ~ OUTPUT [2] $end
$var wire 1 !! OUTPUT [1] $end
$var wire 1 "! OUTPUT [0] $end
$var wire 1 #! SFUOP $end
$var wire 1 $! ZERO $end
$var wire 1 %! n12 $end
$var wire 1 &! n13 $end
$var wire 1 '! n14 $end
$var wire 1 (! n15 $end
$var wire 1 )! n16 $end
$var wire 1 *! n17 $end
$var wire 1 +! n18 $end
$var wire 1 ,! n19 $end
$var wire 1 -! n20 $end
$var wire 1 .! n21 $end
$var wire 1 /! n22 $end
$var wire 1 0! n23 $end
$var wire 1 1! n24 $end
$var wire 1 2! n25 $end
$var wire 1 3! n26 $end
$var wire 1 4! n27 $end
$var wire 1 5! n28 $end
$var wire 1 6! n29 $end
$var wire 1 7! n30 $end
$var wire 1 8! n31 $end
$var wire 1 9! n32 $end
$var wire 1 :! abs_v_n23 $end
$var wire 1 ;! abs_v_n22 $end
$var wire 1 <! abs_v_n21 $end
$var wire 1 =! abs_v_n20 $end
$var wire 1 >! abs_v_n19 $end
$var wire 1 ?! abs_v_n18 $end
$var wire 1 @! abs_v_n17 $end
$var wire 1 A! abs_v_n16 $end
$var wire 1 B! abs_v_n15 $end
$var wire 1 C! abs_v_n14 $end
$var wire 1 D! abs_v_n13 $end
$var wire 1 E! abs_v_n12 $end
$var wire 1 F! abs_v_n11 $end
$var wire 1 G! abs_v_n10 $end
$var wire 1 H! abs_v_n9 $end
$var wire 1 I! abs_v_n8 $end
$var wire 1 J! abs_v_n7 $end
$var wire 1 K! abs_v_n6 $end
$var wire 1 L! abs_v_n5 $end
$var wire 1 M! abs_v_n2 $end
$var wire 1 N! abs_v_n1 $end
$var wire 1 O! abs_v_n67 $end
$var wire 1 P! abs_v_n66 $end
$var wire 1 Q! abs_v_n65 $end
$var wire 1 R! abs_v_n64 $end
$var wire 1 S! abs_v_n63 $end
$var wire 1 T! abs_v_n62 $end
$var wire 1 U! abs_v_n61 $end
$var wire 1 V! abs_v_n60 $end
$var wire 1 W! abs_v_n59 $end
$var wire 1 X! abs_v_n58 $end
$var wire 1 Y! abs_v_n57 $end
$var wire 1 Z! abs_v_n56 $end
$var wire 1 [! abs_v_n55 $end
$var wire 1 \! abs_v_n54 $end
$var wire 1 ]! abs_v_n53 $end
$var wire 1 ^! abs_v_n52 $end
$var wire 1 _! abs_v_n51 $end
$var wire 1 `! abs_v_n50 $end
$var wire 1 a! abs_v_n49 $end
$var wire 1 b! abs_v_n48 $end
$var wire 1 c! abs_v_n47 $end
$var wire 1 d! abs_v_n46 $end
$var wire 1 e! abs_v_n45 $end
$var wire 1 f! abs_v_n44 $end
$var wire 1 g! abs_v_n43 $end
$var wire 1 h! abs_v_n42 $end
$var wire 1 i! abs_v_n41 $end
$var wire 1 j! abs_v_n40 $end
$var wire 1 k! abs_v_n39 $end
$var wire 1 l! abs_v_n38 $end
$var wire 1 m! abs_v_n37 $end
$var wire 1 n! abs_v_NEG_OUTPUT_1_ $end
$var wire 1 o! abs_v_NEG_OUTPUT_2_ $end
$var wire 1 p! abs_v_NEG_OUTPUT_3_ $end
$var wire 1 q! abs_v_NEG_OUTPUT_4_ $end
$var wire 1 r! abs_v_NEG_OUTPUT_5_ $end
$var wire 1 s! abs_v_NEG_OUTPUT_6_ $end
$var wire 1 t! abs_v_NEG_OUTPUT_7_ $end
$var wire 1 u! abs_v_NEG_OUTPUT_8_ $end
$var wire 1 v! abs_v_NEG_OUTPUT_9_ $end
$var wire 1 w! abs_v_NEG_OUTPUT_10_ $end
$var wire 1 x! abs_v_NEG_OUTPUT_11_ $end
$var wire 1 y! abs_v_NEG_OUTPUT_12_ $end
$var wire 1 z! abs_v_NEG_OUTPUT_13_ $end
$var wire 1 {! abs_v_NEG_OUTPUT_14_ $end
$var wire 1 |! abs_v_NEG_OUTPUT_15_ $end
$var wire 1 }! abs_v_NEG_OUTPUT_16_ $end
$var wire 1 ~! abs_v_NEG_OUTPUT_17_ $end
$var wire 1 !" abs_v_NEG_OUTPUT_18_ $end
$var wire 1 "" abs_v_NEG_OUTPUT_19_ $end
$var wire 1 #" abs_v_NEG_OUTPUT_20_ $end
$var wire 1 $" abs_v_NEG_OUTPUT_21_ $end
$var wire 1 %" abs_v_NEG_OUTPUT_22_ $end
$var wire 1 &" abs_v_NEG_OUTPUT_23_ $end
$var wire 1 '" abs_v_NEG_OUTPUT_24_ $end
$var wire 1 (" abs_v_NEG_OUTPUT_25_ $end
$var wire 1 )" abs_v_NEG_OUTPUT_26_ $end
$var wire 1 *" abs_v_NEG_OUTPUT_27_ $end
$var wire 1 +" abs_v_NEG_OUTPUT_28_ $end
$var wire 1 ," abs_v_NEG_OUTPUT_29_ $end
$var wire 1 -" abs_v_NEG_OUTPUT_30_ $end
$var wire 1 ." abs_v_NEG_OUTPUT_31_ $end
$var wire 1 /" abs_v_sub_add_22_b0_n93 $end
$var wire 1 0" abs_v_sub_add_22_b0_n92 $end
$var wire 1 1" abs_v_sub_add_22_b0_n91 $end
$var wire 1 2" abs_v_sub_add_22_b0_n90 $end
$var wire 1 3" abs_v_sub_add_22_b0_n89 $end
$var wire 1 4" abs_v_sub_add_22_b0_n88 $end
$var wire 1 5" abs_v_sub_add_22_b0_n87 $end
$var wire 1 6" abs_v_sub_add_22_b0_n86 $end
$var wire 1 7" abs_v_sub_add_22_b0_n85 $end
$var wire 1 8" abs_v_sub_add_22_b0_n84 $end
$var wire 1 9" abs_v_sub_add_22_b0_n83 $end
$var wire 1 :" abs_v_sub_add_22_b0_n82 $end
$var wire 1 ;" abs_v_sub_add_22_b0_n81 $end
$var wire 1 <" abs_v_sub_add_22_b0_n80 $end
$var wire 1 =" abs_v_sub_add_22_b0_n79 $end
$var wire 1 >" abs_v_sub_add_22_b0_n78 $end
$var wire 1 ?" abs_v_sub_add_22_b0_n77 $end
$var wire 1 @" abs_v_sub_add_22_b0_n76 $end
$var wire 1 A" abs_v_sub_add_22_b0_n75 $end
$var wire 1 B" abs_v_sub_add_22_b0_n74 $end
$var wire 1 C" abs_v_sub_add_22_b0_n73 $end
$var wire 1 D" abs_v_sub_add_22_b0_n72 $end
$var wire 1 E" abs_v_sub_add_22_b0_n71 $end
$var wire 1 F" abs_v_sub_add_22_b0_n70 $end
$var wire 1 G" abs_v_sub_add_22_b0_n69 $end
$var wire 1 H" abs_v_sub_add_22_b0_n68 $end
$var wire 1 I" abs_v_sub_add_22_b0_n67 $end
$var wire 1 J" abs_v_sub_add_22_b0_n66 $end
$var wire 1 K" abs_v_sub_add_22_b0_n65 $end
$var wire 1 L" abs_v_sub_add_22_b0_n64 $end
$var wire 1 M" abs_v_sub_add_22_b0_n63 $end
$var wire 1 N" abs_v_sub_add_22_b0_n62 $end
$var wire 1 O" abs_v_sub_add_22_b0_n61 $end
$var wire 1 P" abs_v_sub_add_22_b0_n60 $end
$var wire 1 Q" abs_v_sub_add_22_b0_n59 $end
$var wire 1 R" abs_v_sub_add_22_b0_n58 $end
$var wire 1 S" abs_v_sub_add_22_b0_n57 $end
$var wire 1 T" abs_v_sub_add_22_b0_n56 $end
$var wire 1 U" abs_v_sub_add_22_b0_n55 $end
$var wire 1 V" abs_v_sub_add_22_b0_n54 $end
$var wire 1 W" abs_v_sub_add_22_b0_n53 $end
$var wire 1 X" abs_v_sub_add_22_b0_n52 $end
$var wire 1 Y" abs_v_sub_add_22_b0_n51 $end
$var wire 1 Z" abs_v_sub_add_22_b0_n50 $end
$var wire 1 [" abs_v_sub_add_22_b0_n49 $end
$var wire 1 \" abs_v_sub_add_22_b0_n48 $end
$var wire 1 ]" abs_v_sub_add_22_b0_n47 $end
$var wire 1 ^" abs_v_sub_add_22_b0_n46 $end
$var wire 1 _" abs_v_sub_add_22_b0_n45 $end
$var wire 1 `" abs_v_sub_add_22_b0_n44 $end
$var wire 1 a" abs_v_sub_add_22_b0_n43 $end
$var wire 1 b" abs_v_sub_add_22_b0_n42 $end
$var wire 1 c" abs_v_sub_add_22_b0_n41 $end
$var wire 1 d" abs_v_sub_add_22_b0_n40 $end
$var wire 1 e" abs_v_sub_add_22_b0_n39 $end
$var wire 1 f" abs_v_sub_add_22_b0_n38 $end
$var wire 1 g" abs_v_sub_add_22_b0_n37 $end
$var wire 1 h" abs_v_sub_add_22_b0_n36 $end
$var wire 1 i" abs_v_sub_add_22_b0_n35 $end
$var wire 1 j" abs_v_sub_add_22_b0_n34 $end
$var wire 1 k" abs_v_sub_add_22_b0_n33 $end
$var wire 1 l" abs_v_sub_add_22_b0_n32 $end
$var wire 1 m" OUTPUT_ABS [31] $end
$var wire 1 n" OUTPUT_ABS [30] $end
$var wire 1 o" OUTPUT_ABS [29] $end
$var wire 1 p" OUTPUT_ABS [28] $end
$var wire 1 q" OUTPUT_ABS [27] $end
$var wire 1 r" OUTPUT_ABS [26] $end
$var wire 1 s" OUTPUT_ABS [25] $end
$var wire 1 t" OUTPUT_ABS [24] $end
$var wire 1 u" OUTPUT_ABS [23] $end
$var wire 1 v" OUTPUT_ABS [22] $end
$var wire 1 w" OUTPUT_ABS [21] $end
$var wire 1 x" OUTPUT_ABS [20] $end
$var wire 1 y" OUTPUT_ABS [19] $end
$var wire 1 z" OUTPUT_ABS [18] $end
$var wire 1 {" OUTPUT_ABS [17] $end
$var wire 1 |" OUTPUT_ABS [16] $end
$var wire 1 }" OUTPUT_ABS [15] $end
$var wire 1 ~" OUTPUT_ABS [14] $end
$var wire 1 !# OUTPUT_ABS [13] $end
$var wire 1 "# OUTPUT_ABS [12] $end
$var wire 1 ## OUTPUT_ABS [11] $end
$var wire 1 $# OUTPUT_ABS [10] $end
$var wire 1 %# OUTPUT_ABS [9] $end
$var wire 1 &# OUTPUT_ABS [8] $end
$var wire 1 '# OUTPUT_ABS [7] $end
$var wire 1 (# OUTPUT_ABS [6] $end
$var wire 1 )# OUTPUT_ABS [5] $end
$var wire 1 *# OUTPUT_ABS [4] $end
$var wire 1 +# OUTPUT_ABS [3] $end
$var wire 1 ,# OUTPUT_ABS [2] $end
$var wire 1 -# OUTPUT_ABS [1] $end
$var wire 1 .# OUTPUT_ABS [0] $end
$upscope $end
$upscope $end
$enddefinitions $end
#0
$dumpvars
x@
x?
x>
x=
x<
x;
x:
x9
x8
x7
x6
x5
x4
x3
x2
x1
x0
x/
x.
x-
x,
x+
x*
x)
x(
x'
x&
x%
x$
x#
x"
x!
x`
x_
x^
x]
x\
x[
xZ
xY
xX
xW
xV
xU
xT
xS
xR
xQ
xP
xO
xN
xM
xL
xK
xJ
xI
xH
xG
xF
xE
xD
xC
xB
xA
x"!
x!!
x~
x}
x|
x{
xz
xy
xx
xw
xv
xu
xt
xs
xr
xq
xp
xo
xn
xm
xl
xk
xj
xi
xh
xg
xf
xe
xd
xc
xb
xa
x#!
x$!
x%!
x&!
x'!
x(!
x)!
x*!
x+!
x,!
x-!
x.!
x/!
x0!
x1!
x2!
x3!
x4!
x5!
x6!
x7!
x8!
x9!
x:!
x;!
x<!
x=!
x>!
x?!
x@!
xA!
xB!
xC!
xD!
xE!
xF!
xG!
xH!
xI!
xJ!
xK!
xL!
xM!
xN!
xO!
xP!
xQ!
xR!
xS!
xT!
xU!
xV!
xW!
xX!
xY!
xZ!
x[!
x\!
x]!
x^!
x_!
x`!
xa!
xb!
xc!
xd!
xe!
xf!
xg!
xh!
xi!
xj!
xk!
xl!
xm!
xn!
xo!
xp!
xq!
xr!
xs!
xt!
xu!
xv!
xw!
xx!
xy!
xz!
x{!
x|!
x}!
x~!
x!"
x""
x#"
x$"
x%"
x&"
x'"
x("
x)"
x*"
x+"
x,"
x-"
x."
x/"
x0"
x1"
x2"
x3"
x4"
x5"
x6"
x7"
x8"
x9"
x:"
x;"
x<"
x="
x>"
x?"
x@"
xA"
xB"
xC"
xD"
xE"
xF"
xG"
xH"
xI"
xJ"
xK"
xL"
xM"
xN"
xO"
xP"
xQ"
xR"
xS"
xT"
xU"
xV"
xW"
xX"
xY"
xZ"
x["
x\"
x]"
x^"
x_"
x`"
xa"
xb"
xc"
xd"
xe"
xf"
xg"
xh"
xi"
xj"
xk"
xl"
x.#
x-#
x,#
x+#
x*#
x)#
x(#
x'#
x&#
x%#
x$#
x##
x"#
x!#
x~"
x}"
x|"
x{"
xz"
xy"
xx"
xw"
xv"
xu"
xt"
xs"
xr"
xq"
xp"
xo"
xn"
xm"
$end
#1
0!
0"
0#
0$
0%
0&
0'
0(
0)
0*
0+
0,
0-
0.
0/
00
01
02
03
04
05
06
07
08
09
0:
0;
0<
0=
0>
0?
0@
0A
0B
0C
0D
0E
0F
0G
0H
0I
0J
0K
0L
0M
0N
0O
0P
0Q
0R
0S
0T
0U
0V
0W
0X
0Y
0Z
0[
0\
0]
0^
0_
0`
0#!
0r
0u
0v
0s
0t
0"!
0j
0k
0m
0y
0|
0l
0n
0o
0w
0x
0}
0b
0p
0!!
0a
19!
0q
1O!
1/"
10"
11"
12"
13"
14"
15"
16"
17"
18"
19"
1:"
1;"
1<"
1="
1>"
1?"
1@"
1A"
1B"
1C"
1D"
1E"
1F"
1G"
1H"
1I"
1J"
1K"
1L"
1M"
1:!
1B!
1A!
1=!
1C!
1d"
0n!
0.#
0d
0e
0f
0g
0h
0i
0z
0{
0~
0+!
0c
1%!
1Z!
1T"
0o!
1D!
1E!
1G!
1H!
1@!
1?!
1K!
1I!
1e!
1S"
0p!
0-#
0$!
1g!
1f"
0q!
0,#
1<!
1;!
1F!
1J!
1>!
0L!
0M!
0N!
18!
1h!
1c"
0r!
0+#
1P"
0s!
0*#
1b!
1i!
1k!
1l!
1f!
1c!
1j!
1d!
1a!
1^!
1Y!
1]!
1X!
1\!
1m!
1W!
1[!
1V!
1_!
1`!
1Q!
1U!
1P!
1T!
1S!
1R!
0m"
1N"
0"#
0!#
0~"
0$#
0}"
0##
0s"
0t"
0|"
0x"
0{"
0%#
0w"
0z"
0v"
0y"
0u"
0r"
0o"
0(#
0p"
0n"
0&#
0'#
0)#
0q"
1R"
0t!
1Q"
0u!
11!
17!
1)!
1*!
10!
16!
1/!
12!
15!
1-!
1.!
14!
13!
1,!
0(!
0'!
0&!
1W"
0v!
1V"
0w!
1["
0x!
1Z"
0y!
1Y"
0z!
1X"
0{!
1_"
0|!
1^"
0}!
1]"
0~!
1\"
0!"
1b"
0""
1a"
0#"
1`"
0$"
1l"
0%"
1k"
0&"
1j"
0'"
1i"
0("
1h"
0)"
1g"
0*"
1e"
0+"
1U"
0,"
0O"
0-"
0."
#6
1#!
09!
1+!
0%!
1$!
#16
1@
1`
0O!
0/"
0d"
1n!
1.#
0+!
1"!
0T"
1o!
0S"
1p!
1%!
0$!
0f"
1q!
0c"
1r!
0P"
1s!
0R"
1t!
0Q"
1u!
0W"
1v!
0V"
1w!
0["
1x!
0Z"
1y!
0Y"
1z!
0X"
1{!
0_"
1|!
0^"
1}!
0]"
1~!
0\"
1!"
0b"
1""
0a"
1#"
0`"
1$"
0l"
1%"
0k"
1&"
0j"
1'"
0i"
1("
0h"
1)"
0g"
1*"
0e"
1+"
0U"
1,"
1O"
1-"
1."
#26
1=
1?
0@
1]
1_
0`
1O!
1/"
0Z!
00"
0g!
02"
0p!
1+#
1-#
0.#
1+!
0"!
0.!
1!!
0*!
1}
1&!
#36
1:
1;
0=
1>
0?
1Z
1[
0]
1^
0_
1Z!
10"
0e!
01"
1g!
12"
0i!
04"
0j!
05"
0s!
1(#
0r!
1)#
1p!
0+#
0o!
1,#
1d"
0n!
0-#
1.!
0!!
1o!
08!
1*!
0}
07!
06!
1z
1{
1'!
1~
0%!
#46
1!
1"
1#
1$
1%
1&
1'
1(
1)
1*
1+
1,
1-
1.
1/
10
11
12
13
14
15
16
17
18
19
0:
0;
1<
1=
1A
1B
1C
1D
1E
1F
1G
1H
1I
1J
1K
1L
1M
1N
1O
1P
1Q
1R
1S
1T
1U
1V
1W
1X
1Y
0Z
0[
1\
1]
0g!
02"
0h!
03"
1i!
14"
1j!
15"
0k!
06"
0l!
07"
0m!
08"
0P!
09"
0Q!
0:"
0R!
0;"
0S!
0<"
0T!
0="
0U!
0>"
0V!
0?"
0W!
0@"
0X!
0A"
0Y!
0B"
0[!
0C"
0\!
0D"
0]!
0E"
0^!
0F"
0_!
0G"
0`!
0H"
0a!
0I"
0b!
0J"
0c!
0K"
0d!
0L"
0f!
0M"
0:!
0B!
0A!
0=!
0C!
0-"
1n"
0,"
1o"
0+"
1p"
0*"
1q"
0)"
1r"
0("
1s"
0'"
1t"
0&"
1u"
0%"
1v"
0$"
1w"
0#"
1x"
0""
1y"
0!"
1z"
0~!
1{"
0}!
1|"
0|!
1}"
0{!
1~"
0z!
1!#
0y!
1"#
0x!
1##
0w!
1$#
0v!
1%#
0u!
1&#
0t!
1'#
1s!
0(#
1r!
0)#
0q!
1*#
0p!
1+#
1}
1|
17!
16!
1y
1x
0)!
1w
1v
0+!
1u
1t
1s
1r
0,!
1q
1p
1o
1n
0-!
1m
1l
1k
0.!
1j
05!
04!
03!
02!
01!
00!
0/!
0*!
1b
0D!
1]!
1\!
0E!
1Q!
1P!
0G!
1Y!
1X!
0H!
1[!
0x"
0@!
1g!
1f!
0z"
0y"
0?!
1d!
1e!
0$#
0##
0K!
1`!
1a!
0w"
0v"
0I!
1^!
1_!
1c
1d
1e
1f
1g
1h
1(!
1i
1%!
0z
0{
0t"
0u"
0<!
1h!
1.!
0j
0k
0r"
0s"
0;!
1m!
1l!
1+!
0u
0v
0,#
0o"
0F!
1U!
1T!
0m
0n
0n"
0+#
0J!
1W!
1V!
0l
0|"
0{"
0>!
1k!
0}
0b
0~"
0}"
1b!
1c!
1/!
18!
0&#
0%#
1L!
1M!
13!
12!
0*#
1N!
15!
14!
0(!
0h
0i
0i!
0j!
0e!
1*!
0|
0f
0g
1m"
0N"
0w
0x
0~
0c
0p"
0q"
0q
0r
0'#
1S!
1R!
1-!
0o
0p
0."
0"#
0!#
1)!
0y
11!
10!
0*!
1a
1,#
1(#
1)#
07!
06!
08!
0'!
0d
0e
1,!
0s
0t
0m"
1*!
0a
0%!
1'!
1~
1z
1{
#56
1:
1;
0=
1?
1Z
1[
0]
1_
00"
12"
04"
05"
0s!
0r!
1p!
0d"
1n!
0Z!
0o!
0g!
1i!
1j!
0(#
0)#
1+#
1e!
1-#
0.!
1!!
0,#
0*!
1}
17!
16!
0z
0{
18!
1%!
0'!
0~
#66
1=
1@
1]
1`
0O!
0/"
02"
0p!
0n!
1.#
0+!
1"!
1Z!
1g!
0+#
0-#
1.!
0!!
1*!
0}
0&!
#76
0!
0"
0&
0*
0+
0.
00
03
04
06
08
09
0:
0;
0<
0=
0>
0?
0@
0A
0B
0F
0J
0K
0N
0P
0S
0T
0V
0X
0Y
0Z
0[
0\
0]
0^
0_
0`
1O!
1/"
10"
11"
12"
13"
14"
15"
16"
17"
19"
1;"
1<"
1?"
1A"
1D"
1E"
1I"
1M"
1:!
1B!
1A!
1=!
1C!
1-"
1)"
1%"
1$"
1!"
1}!
1z!
1y!
1w!
1u!
1t!
1s!
1r!
1q!
1p!
1o!
1d"
0.#
1+!
0"!
1T"
0o!
0e!
0g!
0h!
0i!
0j!
0k!
0l!
0P!
0R!
0S!
0V!
0X!
0\!
0]!
0a!
0f!
1D!
1E!
0Q!
1G!
0Y!
1H!
0[!
1x"
1@!
1y"
1?!
0d!
1##
1K!
0`!
1I!
0^!
0_!
1n"
1r"
1v"
1w"
1z"
1|"
1!#
1"#
1$#
1&#
1'#
1(#
1)#
1*#
1+#
1,#
1e!
1S"
0p!
0%!
1$!
1g!
1f"
0q!
0,#
08!
1}
1|
07!
06!
1y
0)!
1x
1v
1t
0,!
1s
1p
1n
1k
1j
02!
0*!
1b
1t"
1u"
1<!
1s"
1;!
0m!
0+!
1u
1o"
1F!
0U!
0T!
0-!
1m
1J!
0W!
0.!
1l
1{"
1>!
1~"
1}"
0b!
0c!
0/!
1%#
0L!
0M!
03!
0N!
05!
04!
1(!
1f
1%!
1z
1&!
1{
1'!
1~
18!
1h!
1c"
0r!
0+#
0}
1P"
0s!
0*#
0~
0$!
1h
1i
1i!
1k!
1l!
1f!
1j!
1a!
1g
1]!
1X!
1\!
1V!
1P!
1S!
1R!
1N"
1w
1c
1p"
1q"
1q
1r
1o
1."
01!
00!
0"#
0!#
0$#
0|"
0w"
0z"
0v"
0r"
0(#
0n"
0&#
0'#
0)#
0|
1R"
0t!
1Q"
0u!
17!
0y
0x
1*!
0b
16!
12!
0j
0n
0k
0p
0v
0s
0t
1d
1e
0f
0z
0{
1v!
#86
1!
1"
0#
0$
0%
1&
0'
0(
0)
1*
1+
0,
0-
1.
0/
10
01
02
13
14
05
16
1A
1B
0C
0D
0E
1F
0G
0H
0I
1J
1K
0L
0M
1N
0O
1P
0Q
0R
1S
1T
0U
1V
0P!
09"
1Q!
1:"
0R!
0;"
0S!
0<"
1T!
1="
1U!
1>"
0V!
0?"
1W!
1@"
0X!
0A"
1Y!
1B"
1[!
1C"
0\!
0D"
0]!
0E"
1^!
1F"
1_!
1G"
1`!
1H"
0a!
0I"
1b!
1J"
1c!
1K"
1d!
1L"
0f!
0M"
0:!
0B!
0A!
0=!
0C!
0-"
1n"
1,"
0o"
1+"
0p"
1*"
0q"
0)"
1r"
1("
0s"
1'"
0t"
1&"
0u"
0%"
1v"
0$"
1w"
1#"
0x"
1""
0y"
0!"
1z"
1~!
0{"
0}!
1|"
1|!
0}"
1{!
0~"
0z!
1!#
0y!
1"#
1x!
0##
0w!
1$#
1v
0u
1t
1s
0r
0q
1p
0o
1n
0m
0l
1k
1j
15!
14!
13!
02!
11!
10!
1/!
0*!
1b
0D!
1]!
1\!
0E!
1P!
0G!
1X!
0H!
0@!
1f!
0z"
0?!
0$#
0K!
1a!
0w"
0v"
0I!
0'!
0c
0d
0e
1f
0g
0h
0i
0<!
1.!
0j
0k
0r"
0;!
1m!
1+!
0v
0F!
0n
0n"
0J!
1V!
0|"
0>!
1*!
0b
0%#
1L!
1M!
12!
1N!
0b!
0c!
0d!
0(!
0f
0^!
0Y!
0m!
0W!
0[!
0_!
0`!
0Q!
0U!
0T!
1m"
0N"
1)!
0w
1S!
1R!
1-!
0p
0."
0"#
0!#
0&!
0*!
1a
1~"
1}"
1##
1s"
1t"
1x"
1{"
1%#
1y"
1u"
1o"
1p"
1q"
01!
00!
0/!
05!
1m
0)!
1w
0-!
1o
0.!
1l
04!
03!
0+!
1u
1q
1r
1&!
0s
0t
0m"
1*!
0a
1g
1h
1(!
1i
1c
1d
1'!
1e
#96
0!
1#
1$
1%
1'
1(
1)
1,
1-
1/
11
12
15
18
19
1:
1;
1<
1=
1>
1?
1@
0A
1C
1D
1E
1G
1H
1I
1L
1M
1O
1Q
1R
1U
1X
1Y
1Z
1[
1\
1]
1^
1_
1`
0O!
0/"
00"
01"
02"
03"
04"
05"
06"
07"
0:"
0="
0>"
0@"
0B"
0C"
0F"
0G"
0H"
0J"
0K"
0L"
1:!
1B!
1A!
1=!
1C!
0,"
0+"
0*"
0("
0'"
0&"
0#"
0""
0~!
0|!
0{!
0x!
0Q"
1u!
0R"
1t!
0P"
1s!
0c"
1r!
0f"
1q!
0S"
1p!
0T"
1o!
0d"
1.#
1"!
0o!
0e!
0p!
0g!
0q!
0h!
0r!
0i!
0s!
0j!
0t!
0k!
0u!
0l!
0v!
1T!
1U!
1W!
1^!
1_!
1`!
1b!
1c!
1d!
1D!
0]!
0\!
1E!
0P!
1G!
0X!
1H!
0Z!
1-#
1@!
0f!
1z"
1?!
0d!
1$#
1K!
0`!
0a!
1w"
1v"
1I!
0^!
0_!
0o"
0p"
0q"
0s"
0t"
0u"
0{"
0}"
0~"
1m!
1&#
1l!
1'#
1k!
1(#
1j!
1)#
1i!
1*#
1h!
1+#
1,#
08!
1}
0*#
0*!
1|
0)#
07!
0(#
06!
0'#
1y
0&#
1x
0%#
1,!
0r
0q
0o
15!
14!
13!
11!
10!
1/!
1t"
1u"
1<!
0i!
0h!
1j
1k
1r"
1s"
1;!
0m!
0l!
1v
1o"
1F!
0U!
0T!
1n
1n"
1J!
0W!
0V!
1!!
1|"
1{"
1>!
0k!
0j!
1b
1~"
1}"
0b!
0c!
0/!
1&#
1%#
0L!
0M!
03!
02!
1*#
1)#
0N!
05!
04!
0c
0d
0e
0(!
0g
0h
0i
1)!
0w
0x
0y
1z
16!
1{
17!
0|
1~
0{
0z
1h
1i
07!
1|
1f
1(!
1g
1N"
1w
0)!
1x
1c
1p"
1q"
1q
0,!
1r
1(#
1'#
0S!
0R!
1o
1p
1."
1"#
1!#
1y
06!
01!
00!
1{
1d
1e
1z
1s
1t
