Lab3/abs_test/special_unit/sfu_Behavioral_codelike/sfu_Behavioral_codelike.vcd
$date
	Wed Jan  6 21:15:47 2021
$end
$version
	ModelSim Version 6.5c
$end
$timescale
	1ns
$end
$scope module tb_sfu $end
$scope module UUT $end
$var wire 1 ! IN_A [31] $end
$var wire 1 " IN_A [30] $end
$var wire 1 # IN_A [29] $end
$var wire 1 $ IN_A [28] $end
$var wire 1 % IN_A [27] $end
$var wire 1 & IN_A [26] $end
$var wire 1 ' IN_A [25] $end
$var wire 1 ( IN_A [24] $end
$var wire 1 ) IN_A [23] $end
$var wire 1 * IN_A [22] $end
$var wire 1 + IN_A [21] $end
$var wire 1 , IN_A [20] $end
$var wire 1 - IN_A [19] $end
$var wire 1 . IN_A [18] $end
$var wire 1 / IN_A [17] $end
$var wire 1 0 IN_A [16] $end
$var wire 1 1 IN_A [15] $end
$var wire 1 2 IN_A [14] $end
$var wire 1 3 IN_A [13] $end
$var wire 1 4 IN_A [12] $end
$var wire 1 5 IN_A [11] $end
$var wire 1 6 IN_A [10] $end
$var wire 1 7 IN_A [9] $end
$var wire 1 8 IN_A [8] $end
$var wire 1 9 IN_A [7] $end
$var wire 1 : IN_A [6] $end
$var wire 1 ; IN_A [5] $end
$var wire 1 < IN_A [4] $end
$var wire 1 = IN_A [3] $end
$var wire 1 > IN_A [2] $end
$var wire 1 ? IN_A [1] $end
$var wire 1 @ IN_A [0] $end
$var wire 1 A IN_B [31] $end
$var wire 1 B IN_B [30] $end
$var wire 1 C IN_B [29] $end
$var wire 1 D IN_B [28] $end
$var wire 1 E IN_B [27] $end
$var wire 1 F IN_B [26] $end
$var wire 1 G IN_B [25] $end
$var wire 1 H IN_B [24] $end
$var wire 1 I IN_B [23] $end
$var wire 1 J IN_B [22] $end
$var wire 1 K IN_B [21] $end
$var wire 1 L IN_B [20] $end
$var wire 1 M IN_B [19] $end
$var wire 1 N IN_B [18] $end
$var wire 1 O IN_B [17] $end
$var wire 1 P IN_B [16] $end
$var wire 1 Q IN_B [15] $end
$var wire 1 R IN_B [14] $end
$var wire 1 S IN_B [13] $end
$var wire 1 T IN_B [12] $end
$var wire 1 U IN_B [11] $end
$var wire 1 V IN_B [10] $end
$var wire 1 W IN_B [9] $end
$var wire 1 X IN_B [8] $end
$var wire 1 Y IN_B [7] $end
$var wire 1 Z IN_B [6] $end
$var wire 1 [ IN_B [5] $end
$var wire 1 \ IN_B [4] $end
$var wire 1 ] IN_B [3] $end
$var wire 1 ^ IN_B [2] $end
$var wire 1 _ IN_B [1] $end
$var wire 1 ` IN_B [0] $end
$var wire 1 a OUTPUT [31] $end
$var wire 1 b OUTPUT [30] $end
$var wire 1 c OUTPUT [29] $end
$var wire 1 d OUTPUT [28] $end
$var wire 1 e OUTPUT [27] $end
$var wire 1 f OUTPUT [26] $end
$var wire 1 g OUTPUT [25] $end
$var wire 1 h OUTPUT [24] $end
$var wire 1 i OUTPUT [23] $end
$var wire 1 j OUTPUT [22] $end
$var wire 1 k OUTPUT [21] $end
$var wire 1 l OUTPUT [20] $end
$var wire 1 m OUTPUT [19] $end
$var wire 1 n OUTPUT [18] $end
$var wire 1 o OUTPUT [17] $end
$var wire 1 p OUTPUT [16] $end
$var wire 1 q OUTPUT [15] $end
$var wire 1 r OUTPUT [14] $end
$var wire 1 s OUTPUT [13] $end
$var wire 1 t OUTPUT [12] $end
$var wire 1 u OUTPUT [11] $end
$var wire 1 v OUTPUT [10] $end
$var wire 1 w OUTPUT [9] $end
$var wire 1 x OUTPUT [8] $end
$var wire 1 y OUTPUT [7] $end
$var wire 1 z OUTPUT [6] $end
$var wire 1 { OUTPUT [5] $end
$var wire 1 | OUTPUT [4] $end
$var wire 1 } OUTPUT [3] $end
$var wire 1 ~ OUTPUT [2] $end
$var wire 1 !! OUTPUT [1] $end
$var wire 1 "! OUTPUT [0] $end
$var wire 1 #! SFUOP $end
$var wire 1 $! ZERO $end
$var wire 1 %! n12 $end
$var wire 1 &! n13 $end
$var wire 1 '! n14 $end
$var wire 1 (! n15 $end
$var wire 1 )! n16 $end
$var wire 1 *! n17 $end
$var wire 1 +! n18 $end
$var wire 1 ,! n19 $end
$var wire 1 -! n20 $end
$var wire 1 .! n21 $end
$var wire 1 /! n22 $end
$var wire 1 0! n23 $end
$var wire 1 1! n24 $end
$var wire 1 2! n25 $end
$var wire 1 3! n26 $end
$var wire 1 4! n27 $end
$var wire 1 5! n28 $end
$var wire 1 6! n29 $end
$var wire 1 7! n30 $end
$var wire 1 8! n31 $end
$var wire 1 9! n32 $end
$var wire 1 :! abs_v_n5 $end
$var wire 1 ;! abs_v_n4 $end
$var wire 1 <! abs_v_add_32_n30 $end
$var wire 1 =! abs_v_add_32_n29 $end
$var wire 1 >! abs_v_add_32_n28 $end
$var wire 1 ?! abs_v_add_32_n27 $end
$var wire 1 @! abs_v_add_32_n26 $end
$var wire 1 A! abs_v_add_32_n25 $end
$var wire 1 B! abs_v_add_32_n24 $end
$var wire 1 C! abs_v_add_32_n23 $end
$var wire 1 D! abs_v_add_32_n22 $end
$var wire 1 E! abs_v_add_32_n21 $end
$var wire 1 F! abs_v_add_32_n20 $end
$var wire 1 G! abs_v_add_32_n19 $end
$var wire 1 H! abs_v_add_32_n18 $end
$var wire 1 I! abs_v_add_32_n17 $end
$var wire 1 J! abs_v_add_32_n16 $end
$var wire 1 K! abs_v_add_32_n15 $end
$var wire 1 L! abs_v_add_32_n14 $end
$var wire 1 M! abs_v_add_32_n13 $end
$var wire 1 N! abs_v_add_32_n12 $end
$var wire 1 O! abs_v_add_32_n11 $end
$var wire 1 P! abs_v_add_32_n10 $end
$var wire 1 Q! abs_v_add_32_n9 $end
$var wire 1 R! abs_v_add_32_n8 $end
$var wire 1 S! abs_v_add_32_n7 $end
$var wire 1 T! abs_v_add_32_n6 $end
$var wire 1 U! abs_v_add_32_n5 $end
$var wire 1 V! abs_v_add_32_n4 $end
$var wire 1 W! abs_v_add_32_n3 $end
$var wire 1 X! abs_v_add_32_n2 $end
$var wire 1 Y! abs_v_add_32_n1 $end
$var wire 1 Z! OUTPUT_ABS [31] $end
$var wire 1 [! OUTPUT_ABS [30] $end
$var wire 1 \! OUTPUT_ABS [29] $end
$var wire 1 ]! OUTPUT_ABS [28] $end
$var wire 1 ^! OUTPUT_ABS [27] $end
$var wire 1 _! OUTPUT_ABS [26] $end
$var wire 1 `! OUTPUT_ABS [25] $end
$var wire 1 a! OUTPUT_ABS [24] $end
$var wire 1 b! OUTPUT_ABS [23] $end
$var wire 1 c! OUTPUT_ABS [22] $end
$var wire 1 d! OUTPUT_ABS [21] $end
$var wire 1 e! OUTPUT_ABS [20] $end
$var wire 1 f! OUTPUT_ABS [19] $end
$var wire 1 g! OUTPUT_ABS [18] $end
$var wire 1 h! OUTPUT_ABS [17] $end
$var wire 1 i! OUTPUT_ABS [16] $end
$var wire 1 j! OUTPUT_ABS [15] $end
$var wire 1 k! OUTPUT_ABS [14] $end
$var wire 1 l! OUTPUT_ABS [13] $end
$var wire 1 m! OUTPUT_ABS [12] $end
$var wire 1 n! OUTPUT_ABS [11] $end
$var wire 1 o! OUTPUT_ABS [10] $end
$var wire 1 p! OUTPUT_ABS [9] $end
$var wire 1 q! OUTPUT_ABS [8] $end
$var wire 1 r! OUTPUT_ABS [7] $end
$var wire 1 s! OUTPUT_ABS [6] $end
$var wire 1 t! OUTPUT_ABS [5] $end
$var wire 1 u! OUTPUT_ABS [4] $end
$var wire 1 v! OUTPUT_ABS [3] $end
$var wire 1 w! OUTPUT_ABS [2] $end
$var wire 1 x! OUTPUT_ABS [1] $end
$var wire 1 y! OUTPUT_ABS [0] $end
$var wire 1 z! abs_v_COMPL_INPUT [30] $end
$var wire 1 {! abs_v_COMPL_INPUT [29] $end
$var wire 1 |! abs_v_COMPL_INPUT [28] $end
$var wire 1 }! abs_v_COMPL_INPUT [27] $end
$var wire 1 ~! abs_v_COMPL_INPUT [26] $end
$var wire 1 !" abs_v_COMPL_INPUT [25] $end
$var wire 1 "" abs_v_COMPL_INPUT [24] $end
$var wire 1 #" abs_v_COMPL_INPUT [23] $end
$var wire 1 $" abs_v_COMPL_INPUT [22] $end
$var wire 1 %" abs_v_COMPL_INPUT [21] $end
$var wire 1 &" abs_v_COMPL_INPUT [20] $end
$var wire 1 '" abs_v_COMPL_INPUT [19] $end
$var wire 1 (" abs_v_COMPL_INPUT [18] $end
$var wire 1 )" abs_v_COMPL_INPUT [17] $end
$var wire 1 *" abs_v_COMPL_INPUT [16] $end
$var wire 1 +" abs_v_COMPL_INPUT [15] $end
$var wire 1 ," abs_v_COMPL_INPUT [14] $end
$var wire 1 -" abs_v_COMPL_INPUT [13] $end
$var wire 1 ." abs_v_COMPL_INPUT [12] $end
$var wire 1 /" abs_v_COMPL_INPUT [11] $end
$var wire 1 0" abs_v_COMPL_INPUT [10] $end
$var wire 1 1" abs_v_COMPL_INPUT [9] $end
$var wire 1 2" abs_v_COMPL_INPUT [8] $end
$var wire 1 3" abs_v_COMPL_INPUT [7] $end
$var wire 1 4" abs_v_COMPL_INPUT [6] $end
$var wire 1 5" abs_v_COMPL_INPUT [5] $end
$var wire 1 6" abs_v_COMPL_INPUT [4] $end
$var wire 1 7" abs_v_COMPL_INPUT [3] $end
$var wire 1 8" abs_v_COMPL_INPUT [2] $end
$var wire 1 9" abs_v_COMPL_INPUT [1] $end
$var wire 1 :" abs_v_COMPL_INPUT [0] $end
$upscope $end
$upscope $end
$enddefinitions $end
#0
$dumpvars
x@
x?
x>
x=
x<
x;
x:
x9
x8
x7
x6
x5
x4
x3
x2
x1
x0
x/
x.
x-
x,
x+
x*
x)
x(
x'
x&
x%
x$
x#
x"
x!
x`
x_
x^
x]
x\
x[
xZ
xY
xX
xW
xV
xU
xT
xS
xR
xQ
xP
xO
xN
xM
xL
xK
xJ
xI
xH
xG
xF
xE
xD
xC
xB
xA
x"!
x!!
x~
x}
x|
x{
xz
xy
xx
xw
xv
xu
xt
xs
xr
xq
xp
xo
xn
xm
xl
xk
xj
xi
xh
xg
xf
xe
xd
xc
xb
xa
x#!
x$!
x%!
x&!
x'!
x(!
x)!
x*!
x+!
x,!
x-!
x.!
x/!
x0!
x1!
x2!
x3!
x4!
x5!
x6!
x7!
x8!
x9!
x:!
x;!
x<!
x=!
x>!
x?!
x@!
xA!
xB!
xC!
xD!
xE!
xF!
xG!
xH!
xI!
xJ!
xK!
xL!
xM!
xN!
xO!
xP!
xQ!
xR!
xS!
xT!
xU!
xV!
xW!
xX!
xY!
xy!
xx!
xw!
xv!
xu!
xt!
xs!
xr!
xq!
xp!
xo!
xn!
xm!
xl!
xk!
xj!
xi!
xh!
xg!
xf!
xe!
xd!
xc!
xb!
xa!
x`!
x_!
x^!
x]!
x\!
x[!
xZ!
x:"
x9"
x8"
x7"
x6"
x5"
x4"
x3"
x2"
x1"
x0"
x/"
x."
x-"
x,"
x+"
x*"
x)"
x("
x'"
x&"
x%"
x$"
x#"
x""
x!"
x~!
x}!
x|!
x{!
xz!
$end
#1
0!
0"
0#
0$
0%
0&
0'
0(
0)
0*
0+
0,
0-
0.
0/
00
01
02
03
04
05
06
07
08
09
0:
0;
0<
0=
0>
0?
0@
0A
0B
0C
0D
0E
0F
0G
0H
0I
0J
0K
0L
0M
0N
0O
0P
0Q
0R
0S
0T
0U
0V
0W
0X
0Y
0Z
0[
0\
0]
0^
0_
0`
0#!
0j
0k
0m
0n
0q
0r
0u
0v
0y
0|
0}
0b
0l
0o
0p
0s
0w
0x
0t
0!!
0"!
19!
0a
0:!
0;!
01"
02"
03"
04"
05"
06"
07"
0z!
08"
0{!
0|!
0}!
0~!
0!"
0""
0#"
0<!
0%"
0&"
09"
0'"
0("
0)"
0*"
0+"
0,"
0-"
0."
0/"
00"
0:"
0$"
0d
0e
0f
0g
0h
0i
0z
0{
0~
0+!
0c
1%!
0D!
0y!
0P!
0O!
0N!
0M!
0L!
0K!
0J!
0I!
0H!
0G!
0x!
0F!
0E!
0Y!
0C!
0B!
0A!
0@!
0?!
0>!
0=!
0X!
0Z!
0W!
0V!
0U!
0T!
0S!
0R!
0Q!
0o!
0p!
0q!
0r!
0s!
0t!
0u!
0v!
0[!
0\!
0]!
0^!
0_!
0`!
0a!
0w!
0c!
0d!
0e!
0f!
0g!
0h!
0i!
0j!
0k!
0l!
0m!
0n!
0b!
0$!
15!
1,!
1-!
1.!
18!
14!
13!
12!
11!
10!
1/!
1*!
17!
16!
1)!
0&!
0'!
0(!
#6
1#!
09!
1+!
0%!
1$!
#16
1@
1`
1:"
1y!
0+!
1"!
1%!
0$!
#26
1=
1?
0@
1]
1_
0`
0:"
19"
17"
1v!
1x!
0y!
1+!
0"!
0.!
1!!
0*!
1}
1&!
#36
1:
1;
0=
1>
0?
1Z
1[
0]
1^
0_
09"
18"
07"
15"
14"
1s!
1t!
0v!
1w!
0x!
1.!
0!!
08!
1*!
0}
07!
06!
1z
1{
1'!
1~
0%!
#46
1!
1"
1#
1$
1%
1&
1'
1(
1)
1*
1+
1,
1-
1.
1/
10
11
12
13
14
15
16
17
18
19
0:
0;
1<
1=
1A
1B
1C
1D
1E
1F
1G
1H
1I
1J
1K
1L
1M
1N
1O
1P
1Q
1R
1S
1T
1U
1V
1W
1X
1Y
0Z
0[
1\
1]
17"
16"
05"
04"
13"
12"
11"
10"
1/"
1."
1-"
1,"
1+"
1*"
1)"
1("
1'"
1&"
1%"
1$"
1#"
1""
1!"
1~!
1}!
1|!
1{!
1z!
1:!
1;!
1y!
01"
02"
03"
14"
15"
06"
07"
0z!
08"
0{!
0|!
0}!
0~!
0!"
0""
0#"
0%"
0&"
19"
0'"
0("
0)"
0*"
0+"
0,"
0-"
0."
0/"
00"
1:"
0$"
1[!
1\!
1]!
1^!
1_!
1`!
1a!
1b!
1c!
1d!
1e!
1f!
1g!
1h!
1i!
1j!
1k!
1l!
1m!
1n!
1o!
1p!
1q!
1r!
0s!
0t!
1u!
1v!
1}
1|
17!
16!
1y
1x
0)!
1w
1v
1u
1t
1s
1r
0,!
1q
1p
1o
1n
0-!
1m
1l
1k
0.!
1j
05!
04!
03!
02!
01!
00!
0/!
0*!
1b
0c!
0y!
1<!
0o!
0n!
0m!
0l!
0k!
0j!
0i!
0h!
0g!
0f!
1x!
0e!
0d!
0b!
0a!
0`!
0_!
0^!
0]!
0\!
0w!
0[!
0v!
0u!
1t!
1s!
0r!
0q!
0p!
0+!
1"!
1)!
0w
0x
0y
06!
07!
1*!
0|
0}
0b
18!
1/!
10!
11!
12!
13!
14!
15!
0k
0l
1!!
1-!
0m
0n
0o
0p
1,!
0q
0r
0s
0t
1+!
0u
0v
0x!
1Y!
0"!
0j
1c
1d
1e
1f
1g
1h
1(!
1i
1%!
0z
0{
1w!
1.!
0!!
0(!
0i
0h
0g
0f
0'!
0e
0d
0c
0~
1{
1z
0%!
08!
1'!
1~
#56
1:
1;
0=
1?
1Z
1[
0]
1_
09"
17"
05"
04"
0s!
0t!
1v!
1x!
0Y!
0w!
0.!
1!!
0*!
1}
17!
16!
0z
0{
1%!
18!
0'!
0~
#66
1=
1@
1]
1`
0:"
07"
0v!
1y!
0<!
0x!
0+!
1"!
1*!
0}
0&!
1.!
0!!
#76
0!
0"
0&
0*
0+
0.
00
03
04
06
08
09
0:
0;
0<
0=
0>
0?
0@
0A
0B
0F
0J
0K
0N
0P
0S
0T
0V
0X
0Y
0Z
0[
0\
0]
0^
0_
0`
1:"
19"
18"
17"
16"
15"
14"
13"
12"
10"
1."
1-"
1*"
1("
1%"
1$"
1~!
1z!
0:!
0;!
11"
02"
03"
04"
05"
06"
07"
0z!
08"
1{!
1|!
1}!
0~!
1!"
1""
1#"
0%"
1&"
09"
1'"
0("
1)"
0*"
1+"
1,"
0-"
0."
1/"
00"
0:"
0$"
1[!
1_!
1c!
1d!
1g!
1i!
1l!
1m!
1o!
1q!
1r!
1s!
1t!
1u!
1v!
1w!
1x!
1!!
08!
1}
1|
07!
06!
1y
0)!
1x
1v
1t
0,!
1s
1p
0-!
1n
1k
0.!
1j
02!
0*!
1b
0c!
0y!
0o!
1n!
0m!
0l!
1k!
1j!
0i!
1h!
0g!
1f!
0x!
1e!
0d!
1b!
1a!
1`!
0_!
1^!
1]!
1\!
0w!
0[!
0v!
0u!
0t!
0s!
0r!
0q!
1p!
1w
0x
0y
16!
17!
1*!
0|
0}
0b
18!
0/!
00!
01!
12!
03!
04!
05!
0k
1l
0!!
1m
0n
1o
0p
1q
1r
0s
0t
1u
0v
0"!
0j
1(!
1f
1z
1&!
1{
1'!
1~
1i
1h
1g
0f
1e
1d
1c
0~
0{
0z
#86
1!
1"
0#
0$
0%
1&
0'
0(
0)
1*
1+
0,
0-
1.
0/
10
01
02
13
14
05
16
1A
1B
0C
0D
0E
1F
0G
0H
0I
1J
1K
0L
0M
1N
0O
1P
0Q
0R
1S
1T
0U
1V
10"
0/"
1."
1-"
0,"
0+"
1*"
0)"
1("
0'"
0&"
1%"
1$"
0#"
0""
0!"
1~!
0}!
0|!
0{!
1z!
1:!
1;!
1y!
01"
12"
13"
14"
15"
16"
17"
0z!
18"
1{!
1|!
1}!
0~!
1!"
1""
1#"
0%"
1&"
19"
1'"
0("
1)"
0*"
1+"
1,"
0-"
0."
1/"
00"
1:"
0$"
1[!
0\!
0]!
0^!
1_!
0`!
0a!
0b!
1c!
1d!
0e!
0f!
1g!
0h!
1i!
0j!
0k!
1l!
1m!
0n!
1o!
1v
0u
1t
1s
0r
0q
1p
0o
1n
0m
0l
1k
1j
15!
14!
13!
02!
11!
10!
1/!
0*!
1b
0c!
0y!
1<!
0o!
1n!
0m!
0l!
1k!
1j!
0i!
1h!
0g!
1f!
1x!
1e!
0d!
1b!
1a!
1`!
0_!
1^!
1]!
1\!
1w!
0[!
1v!
1u!
1t!
1s!
1r!
1q!
0p!
1"!
0w
1x
1y
06!
07!
1|
1}
0b
08!
0/!
00!
01!
12!
03!
04!
05!
0k
1l
1!!
1m
0n
1o
0p
1q
1r
0s
0t
1u
0v
0x!
1Y!
0"!
0j
0'!
0c
0d
0e
1f
0g
0h
0i
0w!
1X!
0!!
1i
1h
1g
0f
1e
1d
1c
1'!
1~
1{
1z
0v!
1W!
18!
0~
0u!
1V!
0}
0t!
1U!
1*!
0|
0s!
1T!
17!
0{
0r!
1S!
16!
0z
0q!
1R!
0y
1p!
1)!
0x
0&!
0)!
1w
1&!
#96
0!
1#
1$
1%
1'
1(
1)
1,
1-
1/
11
12
15
18
19
1:
1;
1<
1=
1>
1?
1@
0A
1C
1D
1E
1G
1H
1I
1L
1M
1O
1Q
1R
1U
1X
1Y
1Z
1[
1\
1]
1^
1_
1`
0:"
09"
08"
07"
06"
05"
04"
03"
02"
0/"
0,"
0+"
0)"
0'"
0&"
0#"
0""
0!"
0}!
0|!
0{!
0:!
0;!
11"
12"
13"
14"
15"
16"
17"
1z!
18"
1{!
1|!
1}!
1~!
1!"
1""
1#"
1%"
1&"
19"
1'"
1("
1)"
1*"
1+"
1,"
1-"
1."
1/"
10"
1:"
1$"
0\!
0]!
0^!
0`!
0a!
0b!
0e!
0f!
0h!
0j!
0k!
0n!
1q!
0R!
1r!
0S!
1s!
0T!
1t!
0U!
1u!
0V!
1v!
0W!
1w!
0X!
1x!
0Y!
0<!
1!!
08!
1}
0*!
1|
07!
06!
1y
1x
1+!
0u
1,!
0r
0q
1-!
0o
0m
0l
15!
14!
13!
11!
10!
1/!
1c!
1y!
1o!
1n!
1m!
1l!
1k!
1j!
1i!
1h!
1g!
1f!
1e!
1d!
1b!
1a!
1`!
1_!
1^!
1]!
1\!
1[!
1b
0/!
00!
01!
02!
03!
04!
05!
1k
1l
1m
1n
1o
0-!
1p
1q
1r
1s
0,!
1t
1u
1v
0+!
1"!
1j
0c
0d
0e
0(!
0g
0h
0i
1z
1{
1~
1i
1h
1g
1(!
1f
1e
1d
1c
#106
1!
0"
0#
0$
0%
0&
0'
0(
0)
0*
0+
0,
0-
0.
0/
00
01
02
03
04
05
06
07
08
09
0:
0;
0<
0=
0>
0?
1A
0B
0C
0D
0E
0F
0G
0H
0I
0J
0K
0L
0M
0N
0O
0P
0Q
0R
0S
0T
0U
0V
0W
0X
0Y
0Z
0[
0\
0]
0^
0_
09"
08"
07"
06"
05"
04"
03"
02"
01"
00"
0/"
0."
0-"
0,"
0+"
0*"
0)"
0("
0'"
0&"
0%"
0$"
0#"
0""
0!"
0~!
0}!
0|!
0{!
0z!
1:!
1;!
0y!
11"
12"
13"
14"
15"
16"
17"
1z!
18"
1{!
1|!
1}!
1~!
1!"
1""
1#"
1<!
1%"
1&"
19"
1'"
1("
1)"
1*"
1+"
1,"
1-"
1."
1/"
10"
0:"
1$"
0[!
0\!
0]!
0^!
0_!
0`!
0a!
0b!
0c!
0d!
0e!
0f!
0g!
0h!
0i!
0j!
0k!
0l!
0m!
0n!
0o!
0p!
0q!
0r!
0s!
0t!
0u!
0v!
0w!
0x!
1.!
0!!
18!
1*!
0}
0|
17!
16!
1)!
0y
0x
0w
1+!
0v
0u
1,!
0t
0s
0r
0q
1-!
0p
0o
0n
0m
0l
0k
0j
15!
14!
13!
12!
11!
10!
1/!
0b
1c!
1y!
0<!
1o!
1n!
1m!
1l!
1k!
1j!
1i!
1h!
1g!
1f!
1Y!
1e!
1d!
1b!
1a!
1`!
1_!
1^!
1]!
1\!
1w!
1[!
1v!
1u!
1t!
1s!
1r!
1q!
1p!
0"!
1w
1x
0)!
1y
06!
07!
1|
1}
0*!
1b
08!
0/!
00!
01!
02!
03!
04!
05!
1k
1l
0w!
1X!
1m
1n
1o
0-!
1p
1q
1r
1s
0,!
1t
1u
1v
1x!
0Y!
0+!
1"!
0.!
1j
0'!
0c
0d
0e
0(!
0f
0g
0h
0i
0%!
0&!
0z
0{
0~
1$!
1w!
0X!
1!!
1%!
0v!
1W!
18!
1i
1h
1g
1(!
1f
1e
1d
1c
1'!
1~
1{
1z
1&!
0~
0u!
1V!
0}
0$!
1v!
0W!
08!
1~
1u!
0V!
1}
0t!
1U!
0|
0s!
1T!
17!
1t!
0U!
1|
1s!
0T!
07!
0{
0r!
1S!
16!
0z
0q!
1R!
0y
1{
1r!
0S!
06!
1z
1q!
0R!
1y
0p!
1Q!
0x
0o!
1P!
0w
1p!
0Q!
1x
1o!
0P!
1w
0n!
1O!
0v
0m!
1N!
0u
1n!
0O!
1v
1m!
0N!
1u
0l!
1M!
0t
0k!
1L!
0s
1l!
0M!
1t
1k!
0L!
1s
0j!
1K!
0r
0i!
1J!
0q
1j!
0K!
1r
1i!
0J!
1q
0h!
1I!
0p
0g!
1H!
0o
1h!
0I!
1p
1g!
0H!
1o
0f!
1G!
0n
0e!
1F!
0m
1f!
0G!
1n
1e!
0F!
1m
0d!
1E!
0l
0c!
1D!
0k
1d!
0E!
1l
1c!
0D!
1k
0b!
1C!
0j
0a!
1B!
15!
1b!
0C!
1j
1a!
0B!
05!
0i
0`!
1A!
14!
0h
0_!
1@!
13!
1i
1`!
0A!
04!
1h
1_!
0@!
03!
0g
0^!
1?!
12!
0f
0]!
1>!
11!
1g
1^!
0?!
02!
1f
1]!
0>!
01!
0e
0\!
1=!
10!
0d
1Z!
0[!
1/!
1e
1\!
0=!
00!
1d
0Z!
1[!
0/!
0c
0b
1a
1c
1b
0a
#116
0@
0`
1:"
0y!
1<!
0x!
1Y!
0"!
0w!
1X!
0!!
0v!
1W!
18!
0~
0u!
1V!
0}
0t!
1U!
0|
0s!
1T!
17!
0{
0r!
1S!
16!
0z
0q!
1R!
0y
0p!
1Q!
0x
0o!
1P!
1)!
0w
0n!
1O!
0v
0m!
1N!
1+!
0u
0l!
1M!
0t
0k!
1L!
0s
0j!
1K!
0r
0i!
1J!
1,!
0q
0h!
1I!
0p
0g!
1H!
0o
0f!
1G!
0n
0e!
1F!
1-!
0m
0d!
1E!
0l
0c!
1D!
0k
0b!
1C!
1.!
0j
0%!
0a!
1B!
15!
0i
0`!
1A!
14!
0h
0_!
1@!
13!
0g
0^!
1?!
12!
0(!
0f
0]!
1>!
11!
0e
0\!
1=!
10!
0d
1Z!
0[!
1/!
0'!
0c
0b
1a
#126
1#
1$
1%
1&
1'
1(
1*
1,
1-
1/
10
17
18
1<
1=
1>
1?
1C
1D
1E
1F
1G
1H
1J
1L
1M
1O
1P
1W
1X
1\
1]
1^
1_
09"
08"
07"
06"
02"
01"
0*"
0)"
0'"
0&"
0$"
0""
0!"
0~!
0}!
0|!
0{!
1\!
0=!
1]!
0>!
1^!
0?!
1_!
0@!
1`!
0A!
1a!
0B!
1c!
0D!
1e!
0F!
1f!
0G!
1h!
0I!
1i!
0J!
1p!
0Q!
1q!
0R!
1u!
0V!
1v!
0W!
1w!
0X!
1x!
0Y!
0w!
1!!
0v!
08!
0u!
1}
1t!
0U!
1|
0p!
1x
1o!
0P!
0)!
1w
0h!
1p
1g!
0H!
1o
0e!
0-!
1m
1d!
0E!
1l
1b!
0C!
0.!
1j
0`!
04!
0_!
03!
0^!
02!
0]!
01!
0\!
00!
0Z!
1[!
0/!
1c
1b
0a
1d
1/!
1e
10!
1f
11!
1g
12!
1(!
1h
13!
0a!
05!
0c!
1k
1%!
0l
0f!
1n
0o
1n!
0O!
0+!
1v
0w
1s!
0T!
07!
0|
1'!
1~
0}
18!
0'!
0~
1{
1r!
0S!
06!
1m!
0N!
1u
0m
0j
1i
14!
0g
0f
0e
0d
0c
0h
1l!
0M!
0,!
1t
1z
0q!
1y
0x
1k!
0L!
1s
1j!
0K!
1r
0i!
1q
0p
#136
0#
0%
0'
0(
1)
0*
1+
0,
0-
00
11
12
15
19
1:
0C
0E
0G
0H
1I
0J
1K
0L
0M
0P
1Q
1R
1U
1Y
1Z
04"
03"
0/"
0,"
0+"
1*"
1'"
1&"
0%"
1$"
0#"
1""
1!"
1}!
1{!
1\!
1^!
1`!
1a!
0b!
1c!
0d!
1e!
1f!
1i!
0j!
0k!
0n!
0r!
0s!
16!
1)!
0y
0u
0r
0q
1p
1m
1l
0k
1j
15!
04!
03!
01!
0/!
1c
1'!
1e
1g
1h
0i
0z
#146
1"
1#
0$
1%
0&
1(
0+
1,
1-
1.
10
13
14
16
08
09
0:
0?
1@
1B
1C
0D
1E
0F
1H
0K
1L
1M
1N
1P
1S
1T
1V
0X
0Y
0Z
0_
1`
0:"
19"
14"
13"
12"
00"
0."
0-"
0*"
0("
0'"
0&"
1%"
0""
1~!
0}!
1|!
0{!
0z!
0[!
0\!
1]!
0^!
1_!
0a!
1d!
0e!
0f!
0g!
0i!
0l!
0m!
0o!
1q!
1r!
1s!
0x!
1Y!
1y!
0<!
1x!
0Y!
1"!
1w!
0!!
06!
1y
0)!
1x
0v
1,!
0t
0s
1-!
0p
0n
0m
0l
1k
14!
02!
11!
00!
1/!
1*!
0b
0c
1d
0e
1f
0h
1z
08!
0w!
1!!
18!
1~
0~
#156
0!
0"
1'
0(
0)
0/
00
01
02
04
05
07
18
19
1;
0=
0>
0@
0A
0B
1G
0H
0I
0O
0P
0Q
0R
0T
0U
0W
1X
1Y
1[
0]
0^
0`
1:"
18"
17"
05"
03"
02"
11"
1/"
1."
1,"
1+"
1*"
1)"
1#"
1""
0!"
1z!
0:!
0;!
01"
12"
13"
04"
15"
16"
07"
0z!
08"
1{!
0|!
1}!
0~!
1!"
0""
0#"
0%"
1&"
09"
1'"
1("
0)"
0*"
0+"
0,"
1-"
0."
0/"
10"
0:"
0$"
1[!
0`!
1a!
1b!
1h!
1i!
1j!
1k!
1m!
1n!
1p!
0q!
0r!
0t!
1v!
1w!
08!
1}
17!
0y
0x
1w
1u
1t
1r
0,!
1q
1p
0-!
1o
05!
04!
13!
0*!
1b
0c!
0y!
1o!
0n!
0m!
1l!
0k!
0j!
0i!
0h!
1g!
1f!
0x!
1e!
0d!
0b!
0a!
1`!
0_!
1^!
0]!
1\!
0w!
0[!
0v!
1u!
1t!
0s!
1r!
1q!
0p!
0w
1x
1y
16!
07!
1|
0}
0b
18!
0/!
10!
01!
12!
03!
14!
15!
0k
1l
0!!
1m
1n
0o
0p
0q
0r
1s
0t
0u
1v
0"!
0j
0g
1h
1i
0{
1~
0i
0h
1g
0f
1e
0d
1c
0~
1{
0z
#166
1"
0#
0%
1(
1)
1*
1+
03
14
17
08
09
0;
1=
1>
1?
1@
1B
0C
0E
1H
1I
1J
1K
0S
1T
1W
0X
0Y
0[
1]
1^
1_
1`
1:"
19"
18"
17"
05"
03"
02"
11"
1."
0-"
1%"
1$"
1#"
1""
0}!
0{!
1z!
1[!
0\!
0^!
1a!
1b!
1c!
1d!
0l!
1m!
1p!
0q!
0r!
0t!
1v!
1w!
1x!
1y!
1"!
1!!
08!
1}
17!
0y
0x
1w
1t
0s
1k
1j
05!
04!
11!
1/!
1b
0c
0e
1h
1i
0{
1~
