Lab4/Sum/sim/transcript_64bits.txt
# //  Questa Sim-64
# //  Version 10.7c linux_x86_64 Aug 17 2018
# //
# //  Copyright 1991-2018 Mentor Graphics Corporation
# //  All Rights Reserved.
# //
# //  QuestaSim and its associated documentation contain trade
# //  secrets and commercial or financial information that are the property of
# //  Mentor Graphics Corporation and are privileged, confidential,
# //  and exempt from disclosure under the Freedom of Information Act,
# //  5 U.S.C. Section 552. Furthermore, this information
# //  is prohibited from disclosure under the Trade Secrets Act,
# //  18 U.S.C. Section 1905.
# //
do sim_changed.do
# QuestaSim-64 vlog 10.7c Compiler 2018.08 Aug 17 2018
# Start time: 12:37:38 on Apr 08,2021
# vlog -reportprogress 300 -sv ../tb/top_changed.sv 
# ** Note: (vlog-2286) ../tb/top_changed.sv(2): Using implicit +incdir+/software/mentor/questa10.7c/questasim/uvm-1.1d/../verilog_src/uvm-1.1d/src from import uvm_pkg
# -- Compiling package top_changed_sv_unit
# -- Importing package mtiUvm.uvm_pkg (uvm-1.1d Built-in)
# ** Warning: ../tb/monitor.sv(49): (vlog-2240) Treating stand-alone use of function 'begin_tr' as an implicit VOID cast.
# ** Warning: ../tb/monitor_out.sv(48): (vlog-2240) Treating stand-alone use of function 'begin_tr' as an implicit VOID cast.
# -- Compiling module adder
# -- Compiling interface dut_if
# -- Compiling module DUT
# -- Compiling module top
# 
# Top level modules:
# 	top
# End time: 12:37:43 on Apr 08,2021, Elapsed time: 0:00:05
# Errors: 0, Warnings: 2
# vsim top 
# Start time: 12:37:43 on Apr 08,2021
# ** Note: (vsim-3813) Design is being optimized due to module recompilation...
# ** Warning: ../tb/monitor.sv(49): (vopt-2240) Treating stand-alone use of function 'begin_tr' as an implicit VOID cast.
# ** Warning: ../tb/monitor_out.sv(48): (vopt-2240) Treating stand-alone use of function 'begin_tr' as an implicit VOID cast.
# Loading sv_std.std
# Loading mtiUvm.uvm_pkg
# Loading work.top_changed_sv_unit(fast)
# Loading work.top(fast)
# Loading work.DUT(fast)
# Loading mtiUvm.questa_uvm_pkg(fast)
# Loading work.dut_if(fast)
# ** Warning: (vsim-3838) Variable '/top/out/data' written by continuous and procedural assignments. 
# One of the assignments is implicit. See ../src/DUT.sv(9).
#    Time: 0 ns  Iteration: 0  Instance: /top/sum File: ../src/DUT.sv Line: 3
# ** Warning: (vsim-3764) Stand-alone call to function 'begin_tr' treated as implicit void cast.
#    Time: 0 ns  Iteration: 0  Region: /top_changed_sv_unit::driver File: ../tb/driver.sv Line: 67
# Loading /software/mentor/questa10.7c/questasim/uvm-1.1d/linux_x86_64/uvm_dpi.so
# ----------------------------------------------------------------
# UVM-1.1d
# (C) 2007-2013 Mentor Graphics Corporation
# (C) 2007-2013 Cadence Design Systems, Inc.
# (C) 2006-2013 Synopsys, Inc.
# (C) 2011-2013 Cypress Semiconductor Corp.
# ----------------------------------------------------------------
# 
#   ***********       IMPORTANT RELEASE NOTES         ************
# 
#   You are using a version of the UVM library that has been compiled
#   with `UVM_NO_DEPRECATED undefined.
#   See http://www.eda.org/svdb/view.php?id=3313 for more details.
# 
#   You are using a version of the UVM library that has been compiled
#   with `UVM_OBJECT_MUST_HAVE_CONSTRUCTOR undefined.
#   See http://www.eda.org/svdb/view.php?id=3770 for more details.
# 
#       (Specify +UVM_NO_RELNOTES to turn off this notice)
# 
# UVM_INFO verilog_src/questa_uvm_pkg-1.2/src/questa_uvm_pkg.sv(215) @ 0: reporter [Questa UVM] QUESTA_UVM-1.2.3
# UVM_INFO verilog_src/questa_uvm_pkg-1.2/src/questa_uvm_pkg.sv(216) @ 0: reporter [Questa UVM]  questa_uvm::init(+struct)
# UVM_INFO @ 0: reporter [RNTST] Running test simple_test...
# adder: input A =  2126461135076913779, input B = 15177206134831076629, output OUT = 17303667269907990408
# adder: input A = 0001110110000010101101010010001011001000111011101111001001110011, input B = 1101001010100000010001001001000100111101011111000101010100010101, output OUT = 1111000000100010111110011011010000000110011010110100011110001000
# refmod: input A =  2126461135076913779, input B = 15177206134831076629, output OUT = 17303667269907990408
# refmod: input A = 0001110110000010101101010010001011001000111011101111001001110011, input B = 1101001010100000010001001001000100111101011111000101010100010101, output OUT = 1111000000100010111110011011010000000110011010110100011110001000
# UVM_INFO @ 45: uvm_test_top.env_h.comp [Comparator Match] 
# adder: input A =  5265295583356812064, input B = 17845719235182640516, output OUT =  4664270744829900964
# adder: input A = 0100100100010010000101100110111110110011011010100111101100100000, input B = 1111011110101000101110110001011111111110011010101011110110000100, output OUT = 0100000010111010110100011000011110110001110101010011100010100100
# refmod: input A =  5265295583356812064, input B = 17845719235182640516, output OUT =  4664270744829900964
# refmod: input A = 0100100100010010000101100110111110110011011010100111101100100000, input B = 1111011110101000101110110001011111111110011010101011110110000100, output OUT = 0100000010111010110100011000011110110001110101010011100010100100
# UVM_INFO @ 75: uvm_test_top.env_h.comp [Comparator Match] 
# adder: input A =  2793500601009750037, input B =  1844326345513166096, output OUT =  4637826946522916133
# adder: input A = 0010011011000100100000011111111011111011000001101100000000010101, input B = 0001100110011000010111010000101000100010001101001110010100010000, output OUT = 0100000001011100110111110000100100011101001110111010010100100101
# refmod: input A =  2793500601009750037, input B =  1844326345513166096, output OUT =  4637826946522916133
# refmod: input A = 0010011011000100100000011111111011111011000001101100000000010101, input B = 0001100110011000010111010000101000100010001101001110010100010000, output OUT = 0100000001011100110111110000100100011101001110111010010100100101
# UVM_INFO @ 105: uvm_test_top.env_h.comp [Comparator Match] 
# adder: input A =  7902326349789927298, input B =   217907157454462526, output OUT =  8120233507244389824
# adder: input A = 0110110110101010101100111111001001100010011100000001011110000010, input B = 0000001100000110001010010110011110111010000101101001111000111110, output OUT = 0111000010110000110111010101101000011100100001101011010111000000
# refmod: input A =  7902326349789927298, input B =   217907157454462526, output OUT =  8120233507244389824
# refmod: input A = 0110110110101010101100111111001001100010011100000001011110000010, input B = 0000001100000110001010010110011110111010000101101001111000111110, output OUT = 0111000010110000110111010101101000011100100001101011010111000000
# UVM_INFO @ 135: uvm_test_top.env_h.comp [Comparator Match] 
# adder: input A = 12295265558784962709, input B = 12443729802171265215, output OUT =  6292251287246676308
# adder: input A = 1010101010100001100011101110000111110010011110001111000010010101, input B = 1010110010110001000000100101001101001011010111000011000010111111, output OUT = 0101011101010010100100010011010100111101110101010010000101010100
# refmod: input A = 12295265558784962709, input B = 12443729802171265215, output OUT =  6292251287246676308
# refmod: input A = 1010101010100001100011101110000111110010011110001111000010010101, input B = 1010110010110001000000100101001101001011010111000011000010111111, output OUT = 0101011101010010100100010011010100111101110101010010000101010100
# UVM_INFO @ 165: uvm_test_top.env_h.comp [Comparator Match] 
# adder: input A = 15883418494903514539, input B = 12646928083217056706, output OUT = 10083602504411019629
# adder: input A = 1101110001101101001111001111011110010111100101111111010110101011, input B = 1010111110000010111010100001010111011100000100001000001111000010, output OUT = 1000101111110000001001110000110101110011101010000111100101101101
# refmod: input A = 15883418494903514539, input B = 12646928083217056706, output OUT = 10083602504411019629
# refmod: input A = 1101110001101101001111001111011110010111100101111111010110101011, input B = 1010111110000010111010100001010111011100000100001000001111000010, output OUT = 1000101111110000001001110000110101110011101010000111100101101101
# UVM_INFO @ 195: uvm_test_top.env_h.comp [Comparator Match] 
# adder: input A =  5491261827381785685, input B = 15927513759666521840, output OUT =  2972031513338755909
# adder: input A = 0100110000110100111000011000100110111101110000001111010001010101, input B = 1101110100001001111001010110000001111000000100011100011011110000, output OUT = 0010100100111110110001101110101000110101110100101011101101000101
# refmod: input A =  5491261827381785685, input B = 15927513759666521840, output OUT =  2972031513338755909
# refmod: input A = 0100110000110100111000011000100110111101110000001111010001010101, input B = 1101110100001001111001010110000001111000000100011100011011110000, output OUT = 0010100100111110110001101110101000110101110100101011101101000101
# UVM_INFO @ 225: uvm_test_top.env_h.comp [Comparator Match] 
# adder: input A =  9748161796407874339, input B =   268195829968603636, output OUT = 10016357626376477975
# adder: input A = 1000011101001000011011011000000101111111111011001101001100100011, input B = 0000001110111000110100101010111110110111100001010000100111110100, output OUT = 1000101100000001010000000011000100110111011100011101110100010111
# refmod: input A =  9748161796407874339, input B =   268195829968603636, output OUT = 10016357626376477975
# refmod: input A = 1000011101001000011011011000000101111111111011001101001100100011, input B = 0000001110111000110100101010111110110111100001010000100111110100, output OUT = 1000101100000001010000000011000100110111011100011101110100010111
# UVM_INFO @ 255: uvm_test_top.env_h.comp [Comparator Match] 
# adder: input A = 14795414962316057825, input B = 12913133143416036704, output OUT =  9261804032022542913
# adder: input A = 1100110101010011110111111000010011001101010110010001110011100001, input B = 1011001100110100101010100010110101011110101000101101110101100000, output OUT = 1000000010001000100010011011001000101011111110111111101001000001
# refmod: input A = 14795414962316057825, input B = 12913133143416036704, output OUT =  9261804032022542913
# refmod: input A = 1100110101010011110111111000010011001101010110010001110011100001, input B = 1011001100110100101010100010110101011110101000101101110101100000, output OUT = 1000000010001000100010011011001000101011111110111111101001000001
# UVM_INFO @ 285: uvm_test_top.env_h.comp [Comparator Match] 
# adder: input A = 17154754768797921617, input B =  4607678772189455193, output OUT =  3315689467277825194
# adder: input A = 1110111000010001111011101001001010001011001000110111000101010001, input B = 0011111111110001110000110110111001000111011101011110001101011001, output OUT = 0010111000000011101100100000000011010010100110010101010010101010
# refmod: input A = 17154754768797921617, input B =  4607678772189455193, output OUT =  3315689467277825194
# refmod: input A = 1110111000010001111011101001001010001011001000110111000101010001, input B = 0011111111110001110000110110111001000111011101011110001101011001, output OUT = 0010111000000011101100100000000011010010100110010101010010101010
# UVM_INFO @ 315: uvm_test_top.env_h.comp [Comparator Match] 
# adder: input A =  4935611644165578075, input B =  3353867059194977063, output OUT =  8289478703360555138
# adder: input A = 0100010001111110110100001010001111101111110001010101110101011011, input B = 0010111010001011010101000101001000011111001100110101101100100111, output OUT = 0111001100001010001001001111011000001110111110001011100010000010
# refmod: input A =  4935611644165578075, input B =  3353867059194977063, output OUT =  8289478703360555138
# refmod: input A = 0100010001111110110100001010001111101111110001010101110101011011, input B = 0010111010001011010101000101001000011111001100110101101100100111, output OUT = 0111001100001010001001001111011000001110111110001011100010000010
# UVM_INFO @ 345: uvm_test_top.env_h.comp [Comparator Match] 
# adder: input A =   576773796537804757, input B =  7369645112699159638, output OUT =  7946418909236964395
# adder: input A = 0000100000000001000111001011011001001010011000111010011111010101, input B = 0110011001000110001111010010111100010111001000001000010001010110, output OUT = 0110111001000111010110011110010101100001100001000010110000101011
# refmod: input A =   576773796537804757, input B =  7369645112699159638, output OUT =  7946418909236964395
# refmod: input A = 0000100000000001000111001011011001001010011000111010011111010101, input B = 0110011001000110001111010010111100010111001000001000010001010110, output OUT = 0110111001000111010110011110010101100001100001000010110000101011
# UVM_INFO @ 375: uvm_test_top.env_h.comp [Comparator Match] 
# adder: input A = 11689776644373907133, input B =  4266547808990358104, output OUT = 15956324453364265237
# adder: input A = 1010001000111010011011011110110001000111100100001000011010111101, input B = 0011101100110101110100101010000010001100000101110110101001011000, output OUT = 1101110101110000010000001000110011010011101001111111000100010101
# refmod: input A = 11689776644373907133, input B =  4266547808990358104, output OUT = 15956324453364265237
# refmod: input A = 1010001000111010011011011110110001000111100100001000011010111101, input B = 0011101100110101110100101010000010001100000101110110101001011000, output OUT = 1101110101110000010000001000110011010011101001111111000100010101
# UVM_INFO @ 405: uvm_test_top.env_h.comp [Comparator Match] 
# adder: input A =  3902585427954609570, input B = 15664469078414353323, output OUT =  1120310432659411277
# adder: input A = 0011011000101000110001001100010100011010110110011010110110100010, input B = 1101100101100011010111111010001000000101111110100110001110101011, output OUT = 0000111110001100001001000110011100100000110101000001000101001101
# refmod: input A =  3902585427954609570, input B = 15664469078414353323, output OUT =  1120310432659411277
# refmod: input A = 0011011000101000110001001100010100011010110110011010110110100010, input B = 1101100101100011010111111010001000000101111110100110001110101011, output OUT = 0000111110001100001001000110011100100000110101000001000101001101
# UVM_INFO @ 435: uvm_test_top.env_h.comp [Comparator Match] 
# adder: input A =  8000594781611092416, input B =  2239072316825487327, output OUT = 10239667098436579743
# adder: input A = 0110111100000111110100101001000010011101110001011110100111000000, input B = 0001111100010010110010000110100010110110110010110100011111011111, output OUT = 1000111000011010100110101111100101010100100100010011000110011111
# refmod: input A =  8000594781611092416, input B =  2239072316825487327, output OUT = 10239667098436579743
# refmod: input A = 0110111100000111110100101001000010011101110001011110100111000000, input B = 0001111100010010110010000110100010110110110010110100011111011111, output OUT = 1000111000011010100110101111100101010100100100010011000110011111
# UVM_INFO @ 465: uvm_test_top.env_h.comp [Comparator Match] 
# adder: input A =  6081944713532032640, input B = 12834318615092757594, output OUT =   469519254915238618
# adder: input A = 0101010001100111011010000111111001010001101001000100011010000000, input B = 1011001000011100101010001100100000000010110010011000010001011010, output OUT = 0000011010000100000100010100011001010100011011011100101011011010
# refmod: input A =  6081944713532032640, input B = 12834318615092757594, output OUT =   469519254915238618
# refmod: input A = 0101010001100111011010000111111001010001101001000100011010000000, input B = 1011001000011100101010001100100000000010110010011000010001011010, output OUT = 0000011010000100000100010100011001010100011011011100101011011010
# UVM_INFO @ 495: uvm_test_top.env_h.comp [Comparator Match] 
# adder: input A = 11856214087997049782, input B =  6904628485167012418, output OUT =   314098499454510584
# adder: input A = 1010010010001001101110111110010101101000000010111100101110110110, input B = 0101111111010010001010110000011001100100011011000101101001000010, output OUT = 0000010001011011111001101110101111001100011110000010010111111000
# refmod: input A = 11856214087997049782, input B =  6904628485167012418, output OUT =   314098499454510584
# refmod: input A = 1010010010001001101110111110010101101000000010111100101110110110, input B = 0101111111010010001010110000011001100100011011000101101001000010, output OUT = 0000010001011011111001101110101111001100011110000010010111111000
# UVM_INFO @ 525: uvm_test_top.env_h.comp [Comparator Match] 
# adder: input A = 10608914844075300729, input B =   205031551469920942, output OUT = 10813946395545221671
# adder: input A = 1001001100111010011011111101011110011101011110100001011101111001, input B = 0000001011011000011010110001110000011001000111001010001010101110, output OUT = 1001011000010010110110101111001110110110100101101011101000100111
# refmod: input A = 10608914844075300729, input B =   205031551469920942, output OUT = 10813946395545221671
# refmod: input A = 1001001100111010011011111101011110011101011110100001011101111001, input B = 0000001011011000011010110001110000011001000111001010001010101110, output OUT = 1001011000010010110110101111001110110110100101101011101000100111
# UVM_INFO @ 555: uvm_test_top.env_h.comp [Comparator Match] 
# adder: input A = 13757392704991192629, input B = 15089705254606454948, output OUT = 10400353885888095961
# adder: input A = 1011111011101100000100111100011010000000100011001110011000110101, input B = 1101000101101001011001101111101011111010001010011100000010100100, output OUT = 1001000001010101011110101100000101111010101101101010011011011001
# refmod: input A = 13757392704991192629, input B = 15089705254606454948, output OUT = 10400353885888095961
# refmod: input A = 1011111011101100000100111100011010000000100011001110011000110101, input B = 1101000101101001011001101111101011111010001010011100000010100100, output OUT = 1001000001010101011110101100000101111010101101101010011011011001
# UVM_INFO @ 585: uvm_test_top.env_h.comp [Comparator Match] 
# adder: input A =  9074127054362085149, input B =  7279322108725041040, output OUT = 16353449163087126189
# adder: input A = 0111110111101101110001100111101010101010000000111000011100011101, input B = 0110010100000101010110001110001111110000001101000001011110010000, output OUT = 1110001011110011000111110101111010011010001101111001111010101101
# refmod: input A =  9074127054362085149, input B =  7279322108725041040, output OUT = 16353449163087126189
# refmod: input A = 0111110111101101110001100111101010101010000000111000011100011101, input B = 0110010100000101010110001110001111110000001101000001011110010000, output OUT = 1110001011110011000111110101111010011010001101111001111010101101
# UVM_INFO @ 615: uvm_test_top.env_h.comp [Comparator Match] 
# adder: input A = 12964158154244216357, input B = 12879856697728970884, output OUT =  7397270778263635625
# adder: input A = 1011001111101001111100010010011101111011101101011101011000100101, input B = 1011001010111110011100010110110100011010000100100011000010000100, output OUT = 0110011010101000011000101001010010010101110010000000011010101001
# refmod: input A = 12964158154244216357, input B = 12879856697728970884, output OUT =  7397270778263635625
# refmod: input A = 1011001111101001111100010010011101111011101101011101011000100101, input B = 1011001010111110011100010110110100011010000100100011000010000100, output OUT = 0110011010101000011000101001010010010101110010000000011010101001
# UVM_INFO @ 645: uvm_test_top.env_h.comp [Comparator Match] 
# adder: input A = 15437393937164563041, input B = 16748706502619609895, output OUT = 13739356366074621320
# adder: input A = 1101011000111100101000111111111010111010011101100111001001100001, input B = 1110100001101111010110111101001101011111111010101011101100100111, output OUT = 1011111010101011111111111101001000011010011000010010110110001000
# refmod: input A = 15437393937164563041, input B = 16748706502619609895, output OUT = 13739356366074621320
# refmod: input A = 1101011000111100101000111111111010111010011101100111001001100001, input B = 1110100001101111010110111101001101011111111010101011101100100111, output OUT = 1011111010101011111111111101001000011010011000010010110110001000
# UVM_INFO @ 675: uvm_test_top.env_h.comp [Comparator Match] 
# adder: input A =  8917845479695477299, input B = 17833112804965951517, output OUT =  8304214210951877200
# adder: input A = 0111101111000010100011010011011100001011000100100110101000110011, input B = 1111011101111011111100011001110010111011011101110010100000011101, output OUT = 0111001100111110011111101101001111000110100010011001001001010000
# refmod: input A =  8917845479695477299, input B = 17833112804965951517, output OUT =  8304214210951877200
# refmod: input A = 0111101111000010100011010011011100001011000100100110101000110011, input B = 1111011101111011111100011001110010111011011101110010100000011101, output OUT = 0111001100111110011111101101001111000110100010011001001001010000
# UVM_INFO @ 705: uvm_test_top.env_h.comp [Comparator Match] 
# adder: input A = 15086371374264013491, input B =  9468184628507622967, output OUT =  6107811929062084842
# adder: input A = 1101000101011101100011101101010101111000101000001101001010110011, input B = 1000001101100101101111111100000101001010000000101011111000110111, output OUT = 0101010011000011010011101001011011000010101000111001000011101010
# refmod: input A = 15086371374264013491, input B =  9468184628507622967, output OUT =  6107811929062084842
# refmod: input A = 1101000101011101100011101101010101111000101000001101001010110011, input B = 1000001101100101101111111100000101001010000000101011111000110111, output OUT = 0101010011000011010011101001011011000010101000111001000011101010
# UVM_INFO @ 735: uvm_test_top.env_h.comp [Comparator Match] 
# adder: input A =  9211353724551605791, input B =  8816963900146977993, output OUT = 18028317624698583784
# adder: input A = 0111111111010101010011010110100010011100010111101010111000011111, input B = 0111101001011100001001011111001111110001101101000000110011001001, output OUT = 1111101000110001011100110101110010001110000100101011101011101000
# refmod: input A =  9211353724551605791, input B =  8816963900146977993, output OUT = 18028317624698583784
# refmod: input A = 0111111111010101010011010110100010011100010111101010111000011111, input B = 0111101001011100001001011111001111110001101101000000110011001001, output OUT = 1111101000110001011100110101110010001110000100101011101011101000
# UVM_INFO @ 765: uvm_test_top.env_h.comp [Comparator Match] 
# adder: input A =  2226902787415554068, input B = 10456734097004282965, output OUT = 12683636884419837033
# adder: input A = 0001111011100111100011000100100101011001001110110011100000010100, input B = 1001000100011101110010000100001001010010101001111100010001010101, output OUT = 1011000000000101010101001000101110101011111000101111110001101001
# refmod: input A =  2226902787415554068, input B = 10456734097004282965, output OUT = 12683636884419837033
# refmod: input A = 0001111011100111100011000100100101011001001110110011100000010100, input B = 1001000100011101110010000100001001010010101001111100010001010101, output OUT = 1011000000000101010101001000101110101011111000101111110001101001
# UVM_INFO @ 795: uvm_test_top.env_h.comp [Comparator Match] 
# adder: input A = 17839294975937790854, input B =  2064103283515613245, output OUT =  1456654185743852483
# adder: input A = 1111011110010001111010000100001110010100001011101100001110000110, input B = 0001110010100101001010110000000000010001101010100110000000111101, output OUT = 0001010000110111000100110100001110100101110110010010001111000011
# refmod: input A = 17839294975937790854, input B =  2064103283515613245, output OUT =  1456654185743852483
# refmod: input A = 1111011110010001111010000100001110010100001011101100001110000110, input B = 0001110010100101001010110000000000010001101010100110000000111101, output OUT = 0001010000110111000100110100001110100101110110010010001111000011
# UVM_INFO @ 825: uvm_test_top.env_h.comp [Comparator Match] 
# adder: input A =  7958719212072683046, input B =  6850101292731561809, output OUT = 14808820504804244855
# adder: input A = 0110111001110011000011001111010011001110101010110100011000100110, input B = 0101111100010000011100101101010100010100101101010111011101010001, output OUT = 1100110110000011011111111100100111100011011000001011110101110111
# refmod: input A =  7958719212072683046, input B =  6850101292731561809, output OUT = 14808820504804244855
# refmod: input A = 0110111001110011000011001111010011001110101010110100011000100110, input B = 0101111100010000011100101101010100010100101101010111011101010001, output OUT = 1100110110000011011111111100100111100011011000001011110101110111
# UVM_INFO @ 855: uvm_test_top.env_h.comp [Comparator Match] 
# adder: input A = 12469222699996885788, input B = 18193896551301882862, output OUT = 12216375177589217034
# adder: input A = 1010110100001011100100111111101100011010100011010011001100011100, input B = 1111110001111101101101001000010010011100100011011010001111101110, output OUT = 1010100110001001010010000111111110110111000110101101011100001010
# refmod: input A = 12469222699996885788, input B = 18193896551301882862, output OUT = 12216375177589217034
# refmod: input A = 1010110100001011100100111111101100011010100011010011001100011100, input B = 1111110001111101101101001000010010011100100011011010001111101110, output OUT = 1010100110001001010010000111111110110111000110101101011100001010
# UVM_INFO @ 885: uvm_test_top.env_h.comp [Comparator Match] 
# adder: input A = 10665588983496192427, input B = 14313726450013841803, output OUT =  6532571359800482614
# adder: input A = 1001010000000011110010001010101111111001100111000011000110101011, input B = 1100011010100100100100100101111001110001001100000010100110001011, output OUT = 0101101010101000010110110000101001101010110011000101101100110110
# refmod: input A = 10665588983496192427, input B = 14313726450013841803, output OUT =  6532571359800482614
# refmod: input A = 1001010000000011110010001010101111111001100111000011000110101011, input B = 1100011010100100100100100101111001110001001100000010100110001011, output OUT = 0101101010101000010110110000101001101010110011000101101100110110
# UVM_INFO @ 915: uvm_test_top.env_h.comp [Comparator Match] 
# adder: input A = 12420830519517371967, input B =  4818231540076111293, output OUT = 17239062059593483260
# adder: input A = 1010110001011111101001111000110010010011001010011101111000111111, input B = 0100001011011101110011000000111010111111110100011110010110111101, output OUT = 1110111100111101011100111001101101010010111110111100001111111100
# refmod: input A = 12420830519517371967, input B =  4818231540076111293, output OUT = 17239062059593483260
# refmod: input A = 1010110001011111101001111000110010010011001010011101111000111111, input B = 0100001011011101110011000000111010111111110100011110010110111101, output OUT = 1110111100111101011100111001101101010010111110111100001111111100
# UVM_INFO @ 945: uvm_test_top.env_h.comp [Comparator Match] 
# adder: input A =   444361637093198539, input B = 16167789677178702815, output OUT = 16612151314271901354
# adder: input A = 0000011000101010101100001000110111111010110000000100101011001011, input B = 1110000001011111100001110000110011111111011101101100101111011111, output OUT = 1110011010001010001101111001101011111010001101110001011010101010
# refmod: input A =   444361637093198539, input B = 16167789677178702815, output OUT = 16612151314271901354
# refmod: input A = 0000011000101010101100001000110111111010110000000100101011001011, input B = 1110000001011111100001110000110011111111011101101100101111011111, output OUT = 1110011010001010001101111001101011111010001101110001011010101010
# UVM_INFO @ 975: uvm_test_top.env_h.comp [Comparator Match] 
# adder: input A =  6206135798061000333, input B =  5689364108670146034, output OUT = 11895499906731146367
# adder: input A = 0101011000100000100111111010000001110111010000101110011010001101, input B = 0100111011110100101011101000001101100111001001000001010111110010, output OUT = 1010010100010101010011100010001111011110011001101111110001111111
# refmod: input A =  6206135798061000333, input B =  5689364108670146034, output OUT = 11895499906731146367
# refmod: input A = 0101011000100000100111111010000001110111010000101110011010001101, input B = 0100111011110100101011101000001101100111001001000001010111110010, output OUT = 1010010100010101010011100010001111011110011001101111110001111111
# UVM_INFO @ 1005: uvm_test_top.env_h.comp [Comparator Match] 
# adder: input A = 17729158125392025886, input B = 16159319904960410754, output OUT = 15441733956642885024
# adder: input A = 1111011000001010100111110110000111000110101110001101100100011110, input B = 1110000001000001011011111101011001111011000100000111010010000010, output OUT = 1101011001001100000011110011100001000001110010010100110110100000
# refmod: input A = 17729158125392025886, input B = 16159319904960410754, output OUT = 15441733956642885024
# refmod: input A = 1111011000001010100111110110000111000110101110001101100100011110, input B = 1110000001000001011011111101011001111011000100000111010010000010, output OUT = 1101011001001100000011110011100001000001110010010100110110100000
# UVM_INFO @ 1035: uvm_test_top.env_h.comp [Comparator Match] 
# adder: input A =  8683641098409961516, input B = 11190258930951879564, output OUT =  1427155955652289464
# adder: input A = 0111100010000010011111011001001000110011101101010110100000101100, input B = 1001101101001011110010010011010110001100000001110111101110001100, output OUT = 0001001111001110010001101100011110111111101111001110001110111000
# refmod: input A =  8683641098409961516, input B = 11190258930951879564, output OUT =  1427155955652289464
# refmod: input A = 0111100010000010011111011001001000110011101101010110100000101100, input B = 1001101101001011110010010011010110001100000001110111101110001100, output OUT = 0001001111001110010001101100011110111111101111001110001110111000
# UVM_INFO @ 1065: uvm_test_top.env_h.comp [Comparator Match] 
# adder: input A = 12859293409878853500, input B =   699447447962123731, output OUT = 13558740857840977231
# adder: input A = 1011001001110101011000110011100110001110010110011100011101111100, input B = 0000100110110100111011111011111110000010110101011111110111010011, output OUT = 1011110000101010010100101111100100010001001011111100010101001111
# refmod: input A = 12859293409878853500, input B =   699447447962123731, output OUT = 13558740857840977231
# refmod: input A = 1011001001110101011000110011100110001110010110011100011101111100, input B = 0000100110110100111011111011111110000010110101011111110111010011, output OUT = 1011110000101010010100101111100100010001001011111100010101001111
# UVM_INFO @ 1095: uvm_test_top.env_h.comp [Comparator Match] 
# adder: input A =  5632180928893434268, input B =  4698907681695737840, output OUT = 10331088610589172108
# adder: input A = 0100111000101001100001101011011011011001011011000011100110011100, input B = 0100000100110101110111111010001111111111110101000010011111110000, output OUT = 1000111101011111011001100101101011011001010000000110000110001100
# refmod: input A =  5632180928893434268, input B =  4698907681695737840, output OUT = 10331088610589172108
# refmod: input A = 0100111000101001100001101011011011011001011011000011100110011100, input B = 0100000100110101110111111010001111111111110101000010011111110000, output OUT = 1000111101011111011001100101101011011001010000000110000110001100
# UVM_INFO @ 1125: uvm_test_top.env_h.comp [Comparator Match] 
# adder: input A =  3222755385291522535, input B =  6173299130458857340, output OUT =  9396054515750379875
# adder: input A = 0010110010111001100001101111001010110010010001110100000111100111, input B = 0101010110101011111101101101101000000011001110100101111101111100, output OUT = 1000001001100101011111011100110010110101100000011010000101100011
# refmod: input A =  3222755385291522535, input B =  6173299130458857340, output OUT =  9396054515750379875
# refmod: input A = 0010110010111001100001101111001010110010010001110100000111100111, input B = 0101010110101011111101101101101000000011001110100101111101111100, output OUT = 1000001001100101011111011100110010110101100000011010000101100011
# UVM_INFO @ 1155: uvm_test_top.env_h.comp [Comparator Match] 
# adder: input A = 15960482868460915033, input B =  1922401295948877067, output OUT = 17882884164409792100
# adder: input A = 1101110101111111000001101001101101001010010100100000100101011001, input B = 0001101010101101101111011100101100011000110010001000110100001011, output OUT = 1111100000101100110001000110011001100011000110101001011001100100
# refmod: input A = 15960482868460915033, input B =  1922401295948877067, output OUT = 17882884164409792100
# refmod: input A = 1101110101111111000001101001101101001010010100100000100101011001, input B = 0001101010101101101111011100101100011000110010001000110100001011, output OUT = 1111100000101100110001000110011001100011000110101001011001100100
# UVM_INFO @ 1185: uvm_test_top.env_h.comp [Comparator Match] 
# adder: input A =  1512924636198920448, input B =  3066173959931781014, output OUT =  4579098596130701462
# adder: input A = 0001010011111110111111001111000011011000100100101110000100000000, input B = 0010101010001101001111001111100010100101010010010101111110010110, output OUT = 0011111110001100001110011110100101111101110111000100000010010110
# refmod: input A =  1512924636198920448, input B =  3066173959931781014, output OUT =  4579098596130701462
# refmod: input A = 0001010011111110111111001111000011011000100100101110000100000000, input B = 0010101010001101001111001111100010100101010010010101111110010110, output OUT = 0011111110001100001110011110100101111101110111000100000010010110
# UVM_INFO @ 1215: uvm_test_top.env_h.comp [Comparator Match] 
# adder: input A =  1757675991848827934, input B = 18308433892212616783, output OUT =  1619365810351893101
# adder: input A = 0001100001100100100001010000000010000100011000011011110000011110, input B = 1111111000010100100111111001111101101011000011100010111001001111, output OUT = 0001011001111001001001001001111111101111011011111110101001101101
# refmod: input A =  1757675991848827934, input B = 18308433892212616783, output OUT =  1619365810351893101
# refmod: input A = 0001100001100100100001010000000010000100011000011011110000011110, input B = 1111111000010100100111111001111101101011000011100010111001001111, output OUT = 0001011001111001001001001001111111101111011011111110101001101101
# UVM_INFO @ 1245: uvm_test_top.env_h.comp [Comparator Match] 
# adder: input A = 16598105715370577782, input B =  2091912715416044567, output OUT =   243274357077070733
# adder: input A = 1110011001011000010100010011010100100101000010110100111101110110, input B = 0001110100000111111101111000011111111111011111110000010000010111, output OUT = 0000001101100000010010001011110100100100100010100101001110001101
# refmod: input A = 16598105715370577782, input B =  2091912715416044567, output OUT =   243274357077070733
# refmod: input A = 1110011001011000010100010011010100100101000010110100111101110110, input B = 0001110100000111111101111000011111111111011111110000010000010111, output OUT = 0000001101100000010010001011110100100100100010100101001110001101
# UVM_INFO @ 1275: uvm_test_top.env_h.comp [Comparator Match] 
# adder: input A = 13330687790921691959, input B = 15134607933077054203, output OUT = 10018551650289194546
# adder: input A = 1011100100000000000111011110101010110101100001100011001100110111, input B = 1101001000001000111011011011101010000001110111011110001011111011, output OUT = 1000101100001001000010111010010100110111011001000001011000110010
# refmod: input A = 13330687790921691959, input B = 15134607933077054203, output OUT = 10018551650289194546
# refmod: input A = 1011100100000000000111011110101010110101100001100011001100110111, input B = 1101001000001000111011011011101010000001110111011110001011111011, output OUT = 1000101100001001000010111010010100110111011001000001011000110010
# UVM_INFO @ 1305: uvm_test_top.env_h.comp [Comparator Match] 
# adder: input A =  2972995798362223369, input B = 15657577862380433274, output OUT =   183829587033105027
# adder: input A = 0010100101000010001100111110110101010000000110111111001100001001, input B = 1101100101001010111001000001101111000010001101001010111101111010, output OUT = 0000001010001101000110000000100100010010010100001010001010000011
# refmod: input A =  2972995798362223369, input B = 15657577862380433274, output OUT =   183829587033105027
# refmod: input A = 0010100101000010001100111110110101010000000110111111001100001001, input B = 1101100101001010111001000001101111000010001101001010111101111010, output OUT = 0000001010001101000110000000100100010010010100001010001010000011
# UVM_INFO @ 1335: uvm_test_top.env_h.comp [Comparator Match] 
# adder: input A =  2023338668820121123, input B =  8094803369002887086, output OUT = 10118142037823008209
