Lab4/Sum/sim/transcript_constraint_range.txt
# //  Questa Sim-64
# //  Version 10.7c linux_x86_64 Aug 17 2018
# //
# //  Copyright 1991-2018 Mentor Graphics Corporation
# //  All Rights Reserved.
# //
# //  QuestaSim and its associated documentation contain trade
# //  secrets and commercial or financial information that are the property of
# //  Mentor Graphics Corporation and are privileged, confidential,
# //  and exempt from disclosure under the Freedom of Information Act,
# //  5 U.S.C. Section 552. Furthermore, this information
# //  is prohibited from disclosure under the Trade Secrets Act,
# //  18 U.S.C. Section 1905.
# //
do sim_constraints.do
# QuestaSim-64 vlog 10.7c Compiler 2018.08 Aug 17 2018
# Start time: 12:48:21 on Apr 08,2021
# vlog -reportprogress 300 -sv ../tb/top_constraints.sv 
# ** Note: (vlog-2286) ../tb/top_constraints.sv(2): Using implicit +incdir+/software/mentor/questa10.7c/questasim/uvm-1.1d/../verilog_src/uvm-1.1d/src from import uvm_pkg
# -- Compiling package top_constraints_sv_unit
# -- Importing package mtiUvm.uvm_pkg (uvm-1.1d Built-in)
# ** Warning: ../tb/monitor.sv(49): (vlog-2240) Treating stand-alone use of function 'begin_tr' as an implicit VOID cast.
# ** Warning: ../tb/monitor_out.sv(48): (vlog-2240) Treating stand-alone use of function 'begin_tr' as an implicit VOID cast.
# -- Compiling module adder
# -- Compiling interface dut_if
# -- Compiling module DUT
# -- Compiling module top
# 
# Top level modules:
# 	top
# End time: 12:48:27 on Apr 08,2021, Elapsed time: 0:00:06
# Errors: 0, Warnings: 2
# vsim top 
# Start time: 12:48:27 on Apr 08,2021
# ** Note: (vsim-3813) Design is being optimized due to module recompilation...
# ** Warning: ../tb/monitor.sv(49): (vopt-2240) Treating stand-alone use of function 'begin_tr' as an implicit VOID cast.
# ** Warning: ../tb/monitor_out.sv(48): (vopt-2240) Treating stand-alone use of function 'begin_tr' as an implicit VOID cast.
# Loading sv_std.std
# Loading mtiUvm.uvm_pkg
# Loading work.top_constraints_sv_unit(fast)
# Loading work.top(fast)
# Loading work.DUT(fast)
# Loading mtiUvm.questa_uvm_pkg(fast)
# Loading work.dut_if(fast)
# ** Warning: (vsim-3838) Variable '/top/out/data' written by continuous and procedural assignments. 
# One of the assignments is implicit. See ../src/DUT.sv(9).
#    Time: 0 ns  Iteration: 0  Instance: /top/sum File: ../src/DUT.sv Line: 3
# ** Warning: (vsim-3764) Stand-alone call to function 'begin_tr' treated as implicit void cast.
#    Time: 0 ns  Iteration: 0  Region: /top_constraints_sv_unit::driver File: ../tb/driver.sv Line: 67
# Loading /software/mentor/questa10.7c/questasim/uvm-1.1d/linux_x86_64/uvm_dpi.so
# ----------------------------------------------------------------
# UVM-1.1d
# (C) 2007-2013 Mentor Graphics Corporation
# (C) 2007-2013 Cadence Design Systems, Inc.
# (C) 2006-2013 Synopsys, Inc.
# (C) 2011-2013 Cypress Semiconductor Corp.
# ----------------------------------------------------------------
# 
#   ***********       IMPORTANT RELEASE NOTES         ************
# 
#   You are using a version of the UVM library that has been compiled
#   with `UVM_NO_DEPRECATED undefined.
#   See http://www.eda.org/svdb/view.php?id=3313 for more details.
# 
#   You are using a version of the UVM library that has been compiled
#   with `UVM_OBJECT_MUST_HAVE_CONSTRUCTOR undefined.
#   See http://www.eda.org/svdb/view.php?id=3770 for more details.
# 
#       (Specify +UVM_NO_RELNOTES to turn off this notice)
# 
# UVM_INFO verilog_src/questa_uvm_pkg-1.2/src/questa_uvm_pkg.sv(215) @ 0: reporter [Questa UVM] QUESTA_UVM-1.2.3
# UVM_INFO verilog_src/questa_uvm_pkg-1.2/src/questa_uvm_pkg.sv(216) @ 0: reporter [Questa UVM]  questa_uvm::init(+struct)
# UVM_INFO @ 0: reporter [RNTST] Running test simple_test...
# adder: input A =        986, input B =  176121918, output OUT =  176122904
# adder: input A = 00000000000000000000001111011010, input B = 00001010011111110110100000111110, output OUT = 00001010011111110110110000011000
# refmod: input A =        986, input B =  176121918, output OUT =  176122904
# refmod: input A = 00000000000000000000001111011010, input B = 00001010011111110110100000111110, output OUT = 00001010011111110110110000011000
# UVM_INFO @ 45: uvm_test_top.env_h.comp [Comparator Match] 
# adder: input A =        652, input B =  555858997, output OUT =  555859649
# adder: input A = 00000000000000000000001010001100, input B = 00100001001000011011110000110101, output OUT = 00100001001000011011111011000001
# refmod: input A =        652, input B =  555858997, output OUT =  555859649
# refmod: input A = 00000000000000000000001010001100, input B = 00100001001000011011110000110101, output OUT = 00100001001000011011111011000001
# UVM_INFO @ 75: uvm_test_top.env_h.comp [Comparator Match] 
# adder: input A =        373, input B = 1666468699, output OUT = 1666469072
# adder: input A = 00000000000000000000000101110101, input B = 01100011010101000100101101011011, output OUT = 01100011010101000100110011010000
# refmod: input A =        373, input B = 1666468699, output OUT = 1666469072
# refmod: input A = 00000000000000000000000101110101, input B = 01100011010101000100101101011011, output OUT = 01100011010101000100110011010000
# UVM_INFO @ 105: uvm_test_top.env_h.comp [Comparator Match] 
# adder: input A =        653, input B = 1953321136, output OUT = 1953321789
# adder: input A = 00000000000000000000001010001101, input B = 01110100011011010101000010110000, output OUT = 01110100011011010101001100111101
# refmod: input A =        653, input B = 1953321136, output OUT = 1953321789
# refmod: input A = 00000000000000000000001010001101, input B = 01110100011011010101000010110000, output OUT = 01110100011011010101001100111101
# UVM_INFO @ 135: uvm_test_top.env_h.comp [Comparator Match] 
# adder: input A =        336, input B = 1569245230, output OUT = 1569245566
# adder: input A = 00000000000000000000000101010000, input B = 01011101100010001100100000101110, output OUT = 01011101100010001100100101111110
# refmod: input A =        336, input B = 1569245230, output OUT = 1569245566
# refmod: input A = 00000000000000000000000101010000, input B = 01011101100010001100100000101110, output OUT = 01011101100010001100100101111110
# UVM_INFO @ 165: uvm_test_top.env_h.comp [Comparator Match] 
# adder: input A =        791, input B = 1112608309, output OUT = 1112609100
# adder: input A = 00000000000000000000001100010111, input B = 01000010010100010000111000110101, output OUT = 01000010010100010001000101001100
# refmod: input A =        791, input B = 1112608309, output OUT = 1112609100
# refmod: input A = 00000000000000000000001100010111, input B = 01000010010100010000111000110101, output OUT = 01000010010100010001000101001100
# UVM_INFO @ 195: uvm_test_top.env_h.comp [Comparator Match] 
# adder: input A =        860, input B = 1800801806, output OUT = 1800802666
# adder: input A = 00000000000000000000001101011100, input B = 01101011010101100000111000001110, output OUT = 01101011010101100001000101101010
# refmod: input A =        860, input B = 1800801806, output OUT = 1800802666
# refmod: input A = 00000000000000000000001101011100, input B = 01101011010101100000111000001110, output OUT = 01101011010101100001000101101010
# UVM_INFO @ 225: uvm_test_top.env_h.comp [Comparator Match] 
# adder: input A =        386, input B = 1224760945, output OUT = 1224761331
# adder: input A = 00000000000000000000000110000010, input B = 01001001000000000101111001110001, output OUT = 01001001000000000101111111110011
# refmod: input A =        386, input B = 1224760945, output OUT = 1224761331
# refmod: input A = 00000000000000000000000110000010, input B = 01001001000000000101111001110001, output OUT = 01001001000000000101111111110011
# UVM_INFO @ 255: uvm_test_top.env_h.comp [Comparator Match] 
# adder: input A =        861, input B = 1316262526, output OUT = 1316263387
# adder: input A = 00000000000000000000001101011101, input B = 01001110011101001001001001111110, output OUT = 01001110011101001001010111011011
# refmod: input A =        861, input B = 1316262526, output OUT = 1316263387
# refmod: input A = 00000000000000000000001101011101, input B = 01001110011101001001001001111110, output OUT = 01001110011101001001010111011011
# UVM_INFO @ 285: uvm_test_top.env_h.comp [Comparator Match] 
# adder: input A =        677, input B =  791780234, output OUT =  791780911
# adder: input A = 00000000000000000000001010100101, input B = 00101111001100011001101110001010, output OUT = 00101111001100011001111000101111
# refmod: input A =        677, input B =  791780234, output OUT =  791780911
# refmod: input A = 00000000000000000000001010100101, input B = 00101111001100011001101110001010, output OUT = 00101111001100011001111000101111
# UVM_INFO @ 315: uvm_test_top.env_h.comp [Comparator Match] 
# adder: input A =        762, input B = 1429688627, output OUT = 1429689389
# adder: input A = 00000000000000000000001011111010, input B = 01010101001101110101000100110011, output OUT = 01010101001101110101010000101101
# refmod: input A =        762, input B = 1429688627, output OUT = 1429689389
# refmod: input A = 00000000000000000000001011111010, input B = 01010101001101110101000100110011, output OUT = 01010101001101110101010000101101
# UVM_INFO @ 345: uvm_test_top.env_h.comp [Comparator Match] 
# adder: input A =        878, input B = 1570374089, output OUT = 1570374967
# adder: input A = 00000000000000000000001101101110, input B = 01011101100110100000000111001001, output OUT = 01011101100110100000010100110111
# refmod: input A =        878, input B = 1570374089, output OUT = 1570374967
# refmod: input A = 00000000000000000000001101101110, input B = 01011101100110100000000111001001, output OUT = 01011101100110100000010100110111
# UVM_INFO @ 375: uvm_test_top.env_h.comp [Comparator Match] 
# adder: input A =        100, input B =  602358052, output OUT =  602358152
# adder: input A = 00000000000000000000000001100100, input B = 00100011111001110100000100100100, output OUT = 00100011111001110100000110001000
# refmod: input A =        100, input B =  602358052, output OUT =  602358152
# refmod: input A = 00000000000000000000000001100100, input B = 00100011111001110100000100100100, output OUT = 00100011111001110100000110001000
# UVM_INFO @ 405: uvm_test_top.env_h.comp [Comparator Match] 
# adder: input A =        996, input B =  351842964, output OUT =  351843960
# adder: input A = 00000000000000000000001111100100, input B = 00010100111110001011001010010100, output OUT = 00010100111110001011011001111000
# refmod: input A =        996, input B =  351842964, output OUT =  351843960
# refmod: input A = 00000000000000000000001111100100, input B = 00010100111110001011001010010100, output OUT = 00010100111110001011011001111000
# UVM_INFO @ 435: uvm_test_top.env_h.comp [Comparator Match] 
# adder: input A =        802, input B = 1966175866, output OUT = 1966176668
# adder: input A = 00000000000000000000001100100010, input B = 01110101001100010111011001111010, output OUT = 01110101001100010111100110011100
# refmod: input A =        802, input B = 1966175866, output OUT = 1966176668
# refmod: input A = 00000000000000000000001100100010, input B = 01110101001100010111011001111010, output OUT = 01110101001100010111100110011100
# UVM_INFO @ 465: uvm_test_top.env_h.comp [Comparator Match] 
# adder: input A =        287, input B =  461769223, output OUT =  461769510
# adder: input A = 00000000000000000000000100011111, input B = 00011011100001100000101000000111, output OUT = 00011011100001100000101100100110
# refmod: input A =        287, input B =  461769223, output OUT =  461769510
# refmod: input A = 00000000000000000000000100011111, input B = 00011011100001100000101000000111, output OUT = 00011011100001100000101100100110
# UVM_INFO @ 495: uvm_test_top.env_h.comp [Comparator Match] 
# adder: input A =        546, input B =  615306908, output OUT =  615307454
# adder: input A = 00000000000000000000001000100010, input B = 00100100101011001101011010011100, output OUT = 00100100101011001101100010111110
# refmod: input A =        546, input B =  615306908, output OUT =  615307454
# refmod: input A = 00000000000000000000001000100010, input B = 00100100101011001101011010011100, output OUT = 00100100101011001101100010111110
# UVM_INFO @ 525: uvm_test_top.env_h.comp [Comparator Match] 
# adder: input A =        475, input B = 1076088083, output OUT = 1076088558
# adder: input A = 00000000000000000000000111011011, input B = 01000000001000111100110100010011, output OUT = 01000000001000111100111011101110
# refmod: input A =        475, input B = 1076088083, output OUT = 1076088558
# refmod: input A = 00000000000000000000000111011011, input B = 01000000001000111100110100010011, output OUT = 01000000001000111100111011101110
# UVM_INFO @ 555: uvm_test_top.env_h.comp [Comparator Match] 
# adder: input A =        960, input B =  445558831, output OUT =  445559791
# adder: input A = 00000000000000000000001111000000, input B = 00011010100011101011000000101111, output OUT = 00011010100011101011001111101111
# refmod: input A =        960, input B =  445558831, output OUT =  445559791
# refmod: input A = 00000000000000000000001111000000, input B = 00011010100011101011000000101111, output OUT = 00011010100011101011001111101111
# UVM_INFO @ 585: uvm_test_top.env_h.comp [Comparator Match] 
# adder: input A =        512, input B = 2012566020, output OUT = 2012566532
# adder: input A = 00000000000000000000001000000000, input B = 01110111111101010101001000000100, output OUT = 01110111111101010101010000000100
# refmod: input A =        512, input B = 2012566020, output OUT = 2012566532
# refmod: input A = 00000000000000000000001000000000, input B = 01110111111101010101001000000100, output OUT = 01110111111101010101010000000100
# UVM_INFO @ 615: uvm_test_top.env_h.comp [Comparator Match] 
# adder: input A =        658, input B =   43791132, output OUT =   43791790
# adder: input A = 00000000000000000000001010010010, input B = 00000010100111000011001100011100, output OUT = 00000010100111000011010110101110
# refmod: input A =        658, input B =   43791132, output OUT =   43791790
# refmod: input A = 00000000000000000000001010010010, input B = 00000010100111000011001100011100, output OUT = 00000010100111000011010110101110
# UVM_INFO @ 645: uvm_test_top.env_h.comp [Comparator Match] 
# adder: input A =        108, input B = 1330403143, output OUT = 1330403251
# adder: input A = 00000000000000000000000001101100, input B = 01001111010011000101011101000111, output OUT = 01001111010011000101011110110011
# refmod: input A =        108, input B = 1330403143, output OUT = 1330403251
# refmod: input A = 00000000000000000000000001101100, input B = 01001111010011000101011101000111, output OUT = 01001111010011000101011110110011
# UVM_INFO @ 675: uvm_test_top.env_h.comp [Comparator Match] 
# adder: input A =        838, input B = 2074383016, output OUT = 2074383854
# adder: input A = 00000000000000000000001101000110, input B = 01111011101001001001001010101000, output OUT = 01111011101001001001010111101110
# refmod: input A =        838, input B = 2074383016, output OUT = 2074383854
# refmod: input A = 00000000000000000000001101000110, input B = 01111011101001001001001010101000, output OUT = 01111011101001001001010111101110
# UVM_INFO @ 705: uvm_test_top.env_h.comp [Comparator Match] 
# adder: input A =        340, input B = 1669989896, output OUT = 1669990236
# adder: input A = 00000000000000000000000101010100, input B = 01100011100010100000011000001000, output OUT = 01100011100010100000011101011100
# refmod: input A =        340, input B = 1669989896, output OUT = 1669990236
# refmod: input A = 00000000000000000000000101010100, input B = 01100011100010100000011000001000, output OUT = 01100011100010100000011101011100
# UVM_INFO @ 735: uvm_test_top.env_h.comp [Comparator Match] 
# adder: input A =        624, input B = 1747323357, output OUT = 1747323981
# adder: input A = 00000000000000000000001001110000, input B = 01101000001001100000100111011101, output OUT = 01101000001001100000110001001101
# refmod: input A =        624, input B = 1747323357, output OUT = 1747323981
# refmod: input A = 00000000000000000000001001110000, input B = 01101000001001100000100111011101, output OUT = 01101000001001100000110001001101
# UVM_INFO @ 765: uvm_test_top.env_h.comp [Comparator Match] 
# adder: input A =        582, input B =  207073383, output OUT =  207073965
# adder: input A = 00000000000000000000001001000110, input B = 00001100010101111011000001100111, output OUT = 00001100010101111011001010101101
# refmod: input A =        582, input B =  207073383, output OUT =  207073965
# refmod: input A = 00000000000000000000001001000110, input B = 00001100010101111011000001100111, output OUT = 00001100010101111011001010101101
# UVM_INFO @ 795: uvm_test_top.env_h.comp [Comparator Match] 
# adder: input A =        199, input B =  358238883, output OUT =  358239082
# adder: input A = 00000000000000000000000011000111, input B = 00010101010110100100101010100011, output OUT = 00010101010110100100101101101010
# refmod: input A =        199, input B =  358238883, output OUT =  358239082
# refmod: input A = 00000000000000000000000011000111, input B = 00010101010110100100101010100011, output OUT = 00010101010110100100101101101010
# UVM_INFO @ 825: uvm_test_top.env_h.comp [Comparator Match] 
# adder: input A =        503, input B = 1386076644, output OUT = 1386077147
# adder: input A = 00000000000000000000000111110111, input B = 01010010100111011101100111100100, output OUT = 01010010100111011101101111011011
# refmod: input A =        503, input B = 1386076644, output OUT = 1386077147
# refmod: input A = 00000000000000000000000111110111, input B = 01010010100111011101100111100100, output OUT = 01010010100111011101101111011011
# UVM_INFO @ 855: uvm_test_top.env_h.comp [Comparator Match] 
# adder: input A =        323, input B =  978174399, output OUT =  978174722
# adder: input A = 00000000000000000000000101000011, input B = 00111010010011011100000110111111, output OUT = 00111010010011011100001100000010
# refmod: input A =        323, input B =  978174399, output OUT =  978174722
# refmod: input A = 00000000000000000000000101000011, input B = 00111010010011011100000110111111, output OUT = 00111010010011011100001100000010
# UVM_INFO @ 885: uvm_test_top.env_h.comp [Comparator Match] 
# adder: input A =        547, input B = 1033434646, output OUT = 1033435193
# adder: input A = 00000000000000000000001000100011, input B = 00111101100110001111011000010110, output OUT = 00111101100110001111100000111001
# refmod: input A =        547, input B = 1033434646, output OUT = 1033435193
# refmod: input A = 00000000000000000000001000100011, input B = 00111101100110001111011000010110, output OUT = 00111101100110001111100000111001
# UVM_INFO @ 915: uvm_test_top.env_h.comp [Comparator Match] 
# adder: input A =        798, input B =  109385717, output OUT =  109386515
# adder: input A = 00000000000000000000001100011110, input B = 00000110100001010001011111110101, output OUT = 00000110100001010001101100010011
# refmod: input A =        798, input B =  109385717, output OUT =  109386515
# refmod: input A = 00000000000000000000001100011110, input B = 00000110100001010001011111110101, output OUT = 00000110100001010001101100010011
# UVM_INFO @ 945: uvm_test_top.env_h.comp [Comparator Match] 
# adder: input A =        293, input B = 1147585648, output OUT = 1147585941
# adder: input A = 00000000000000000000000100100101, input B = 01000100011001101100010001110000, output OUT = 01000100011001101100010110010101
# refmod: input A =        293, input B = 1147585648, output OUT = 1147585941
# refmod: input A = 00000000000000000000000100100101, input B = 01000100011001101100010001110000, output OUT = 01000100011001101100010110010101
# UVM_INFO @ 975: uvm_test_top.env_h.comp [Comparator Match] 
# adder: input A =        292, input B =  691282283, output OUT =  691282575
# adder: input A = 00000000000000000000000100100100, input B = 00101001001101000010000101101011, output OUT = 00101001001101000010001010001111
# refmod: input A =        292, input B =  691282283, output OUT =  691282575
# refmod: input A = 00000000000000000000000100100100, input B = 00101001001101000010000101101011, output OUT = 00101001001101000010001010001111
# UVM_INFO @ 1005: uvm_test_top.env_h.comp [Comparator Match] 
# adder: input A =        860, input B = 1739059494, output OUT = 1739060354
# adder: input A = 00000000000000000000001101011100, input B = 01100111101001111111000100100110, output OUT = 01100111101001111111010010000010
# refmod: input A =        860, input B = 1739059494, output OUT = 1739060354
# refmod: input A = 00000000000000000000001101011100, input B = 01100111101001111111000100100110, output OUT = 01100111101001111111010010000010
# UVM_INFO @ 1035: uvm_test_top.env_h.comp [Comparator Match] 
# adder: input A =        492, input B =  557136145, output OUT =  557136637
# adder: input A = 00000000000000000000000111101100, input B = 00100001001101010011100100010001, output OUT = 00100001001101010011101011111101
# refmod: input A =        492, input B =  557136145, output OUT =  557136637
# refmod: input A = 00000000000000000000000111101100, input B = 00100001001101010011100100010001, output OUT = 00100001001101010011101011111101
# UVM_INFO @ 1065: uvm_test_top.env_h.comp [Comparator Match] 
# adder: input A =        217, input B =  725064170, output OUT =  725064387
# adder: input A = 00000000000000000000000011011001, input B = 00101011001101111001100111101010, output OUT = 00101011001101111001101011000011
# refmod: input A =        217, input B =  725064170, output OUT =  725064387
# refmod: input A = 00000000000000000000000011011001, input B = 00101011001101111001100111101010, output OUT = 00101011001101111001101011000011
# UVM_INFO @ 1095: uvm_test_top.env_h.comp [Comparator Match] 
# adder: input A =        686, input B = 1596147462, output OUT = 1596148148
# adder: input A = 00000000000000000000001010101110, input B = 01011111001000110100011100000110, output OUT = 01011111001000110100100110110100
# refmod: input A =        686, input B = 1596147462, output OUT = 1596148148
# refmod: input A = 00000000000000000000001010101110, input B = 01011111001000110100011100000110, output OUT = 01011111001000110100100110110100
# UVM_INFO @ 1125: uvm_test_top.env_h.comp [Comparator Match] 
# adder: input A =        178, input B = 1055092444, output OUT = 1055092622
# adder: input A = 00000000000000000000000010110010, input B = 00111110111000110110111011011100, output OUT = 00111110111000110110111110001110
# refmod: input A =        178, input B = 1055092444, output OUT = 1055092622
# refmod: input A = 00000000000000000000000010110010, input B = 00111110111000110110111011011100, output OUT = 00111110111000110110111110001110
# UVM_INFO @ 1155: uvm_test_top.env_h.comp [Comparator Match] 
# adder: input A =        389, input B = 1248084804, output OUT = 1248085193
# adder: input A = 00000000000000000000000110000101, input B = 01001010011001000100001101000100, output OUT = 01001010011001000100010011001001
# refmod: input A =        389, input B = 1248084804, output OUT = 1248085193
# refmod: input A = 00000000000000000000000110000101, input B = 01001010011001000100001101000100, output OUT = 01001010011001000100010011001001
# UVM_INFO @ 1185: uvm_test_top.env_h.comp [Comparator Match] 
# adder: input A =        543, input B =  819587331, output OUT =  819587874
# adder: input A = 00000000000000000000001000011111, input B = 00110000110110011110100100000011, output OUT = 00110000110110011110101100100010
# refmod: input A =        543, input B =  819587331, output OUT =  819587874
# refmod: input A = 00000000000000000000001000011111, input B = 00110000110110011110100100000011, output OUT = 00110000110110011110101100100010
# UVM_INFO @ 1215: uvm_test_top.env_h.comp [Comparator Match] 
# adder: input A =        701, input B =   56086149, output OUT =   56086850
# adder: input A = 00000000000000000000001010111101, input B = 00000011010101111100111010000101, output OUT = 00000011010101111101000101000010
# refmod: input A =        701, input B =   56086149, output OUT =   56086850
# refmod: input A = 00000000000000000000001010111101, input B = 00000011010101111100111010000101, output OUT = 00000011010101111101000101000010
# UVM_INFO @ 1245: uvm_test_top.env_h.comp [Comparator Match] 
# adder: input A =        522, input B = 2037386610, output OUT = 2037387132
# adder: input A = 00000000000000000000001000001010, input B = 01111001011100000000110101110010, output OUT = 01111001011100000000111101111100
# refmod: input A =        522, input B = 2037386610, output OUT = 2037387132
# refmod: input A = 00000000000000000000001000001010, input B = 01111001011100000000110101110010, output OUT = 01111001011100000000111101111100
# UVM_INFO @ 1275: uvm_test_top.env_h.comp [Comparator Match] 
# adder: input A =        165, input B = 2009913795, output OUT = 2009913960
# adder: input A = 00000000000000000000000010100101, input B = 01110111110011001101100111000011, output OUT = 01110111110011001101101001101000
# refmod: input A =        165, input B = 2009913795, output OUT = 2009913960
# refmod: input A = 00000000000000000000000010100101, input B = 01110111110011001101100111000011, output OUT = 01110111110011001101101001101000
# UVM_INFO @ 1305: uvm_test_top.env_h.comp [Comparator Match] 
# adder: input A =        915, input B = 1000367749, output OUT = 1000368664
# adder: input A = 00000000000000000000001110010011, input B = 00111011101000000110011010000101, output OUT = 00111011101000000110101000011000
# refmod: input A =        915, input B = 1000367749, output OUT = 1000368664
# refmod: input A = 00000000000000000000001110010011, input B = 00111011101000000110011010000101, output OUT = 00111011101000000110101000011000
# UVM_INFO @ 1335: uvm_test_top.env_h.comp [Comparator Match] 
# adder: input A =        668, input B = 1198094635, output OUT = 1198095303
# adder: input A = 00000000000000000000001010011100, input B = 01000111011010010111100100101011, output OUT = 01000111011010010111101111000111
# refmod: input A =        668, input B = 1198094635, output OUT = 1198095303
# refmod: input A = 00000000000000000000001010011100, input B = 01000111011010010111100100101011, output OUT = 01000111011010010111101111000111
# UVM_INFO @ 1365: uvm_test_top.env_h.comp [Comparator Match] 
# adder: input A =        452, input B =  204933795, output OUT =  204934247
# adder: input A = 00000000000000000000000111000100, input B = 00001100001101110000101010100011, output OUT = 00001100001101110000110001100111
# refmod: input A =        452, input B =  204933795, output OUT =  204934247
# refmod: input A = 00000000000000000000000111000100, input B = 00001100001101110000101010100011, output OUT = 00001100001101110000110001100111
# UVM_INFO @ 1395: uvm_test_top.env_h.comp [Comparator Match] 
# adder: input A =        623, input B = 1097569458, output OUT = 1097570081
# adder: input A = 00000000000000000000001001101111, input B = 01000001011010111001010010110010, output OUT = 01000001011010111001011100100001
# refmod: input A =        623, input B = 1097569458, output OUT = 1097570081
# refmod: input A = 00000000000000000000001001101111, input B = 01000001011010111001010010110010, output OUT = 01000001011010111001011100100001
# UVM_INFO @ 1425: uvm_test_top.env_h.comp [Comparator Match] 
# adder: input A =         79, input B = 1289052872, output OUT = 1289052951
# adder: input A = 00000000000000000000000001001111, input B = 01001100110101010110001011001000, output OUT = 01001100110101010110001100010111
# refmod: input A =         79, input B = 1289052872, output OUT = 1289052951
# refmod: input A = 00000000000000000000000001001111, input B = 01001100110101010110001011001000, output OUT = 01001100110101010110001100010111
# UVM_INFO @ 1455: uvm_test_top.env_h.comp [Comparator Match] 
# adder: input A =        161, input B = 1473451231, output OUT = 1473451392
# adder: input A = 00000000000000000000000010100001, input B = 01010111110100110001010011011111, output OUT = 01010111110100110001010110000000
# refmod: input A =        161, input B = 1473451231, output OUT = 1473451392
# refmod: input A = 00000000000000000000000010100001, input B = 01010111110100110001010011011111, output OUT = 01010111110100110001010110000000
# UVM_INFO @ 1485: uvm_test_top.env_h.comp [Comparator Match] 
# adder: input A =        503, input B = 1068334005, output OUT = 1068334508
# adder: input A = 00000000000000000000000111110111, input B = 00111111101011010111101110110101, output OUT = 00111111101011010111110110101100
# refmod: input A =        503, input B = 1068334005, output OUT = 1068334508
# refmod: input A = 00000000000000000000000111110111, input B = 00111111101011010111101110110101, output OUT = 00111111101011010111110110101100
# UVM_INFO @ 1515: uvm_test_top.env_h.comp [Comparator Match] 
# adder: input A =        898, input B = 1877740514, output OUT = 1877741412
# adder: input A = 00000000000000000000001110000010, input B = 01101111111011000000101111100010, output OUT = 01101111111011000000111101100100
# refmod: input A =        898, input B = 1877740514, output OUT = 1877741412
# refmod: input A = 00000000000000000000001110000010, input B = 01101111111011000000101111100010, output OUT = 01101111111011000000111101100100
# UVM_INFO @ 1545: uvm_test_top.env_h.comp [Comparator Match] 
# adder: input A =         14, input B =  417159571, output OUT =  417159585
# adder: input A = 00000000000000000000000000001110, input B = 00011000110111010101100110010011, output OUT = 00011000110111010101100110100001
# refmod: input A =         14, input B =  417159571, output OUT =  417159585
# refmod: input A = 00000000000000000000000000001110, input B = 00011000110111010101100110010011, output OUT = 00011000110111010101100110100001
# UVM_INFO @ 1575: uvm_test_top.env_h.comp [Comparator Match] 
# adder: input A =        113, input B = 1049310289, output OUT = 1049310402
# adder: input A = 00000000000000000000000001110001, input B = 00111110100010110011010001010001, output OUT = 00111110100010110011010011000010
# refmod: input A =        113, input B = 1049310289, output OUT = 1049310402
# refmod: input A = 00000000000000000000000001110001, input B = 00111110100010110011010001010001, output OUT = 00111110100010110011010011000010
# UVM_INFO @ 1605: uvm_test_top.env_h.comp [Comparator Match] 
# adder: input A =         34, input B =  489282588, output OUT =  489282622
# adder: input A = 00000000000000000000000000100010, input B = 00011101001010011101110000011100, output OUT = 00011101001010011101110000111110
# refmod: input A =         34, input B =  489282588, output OUT =  489282622
# refmod: input A = 00000000000000000000000000100010, input B = 00011101001010011101110000011100, output OUT = 00011101001010011101110000111110
# UVM_INFO @ 1635: uvm_test_top.env_h.comp [Comparator Match] 
# adder: input A =        506, input B =  374111245, output OUT =  374111751
# adder: input A = 00000000000000000000000111111010, input B = 00010110010011000111110000001101, output OUT = 00010110010011000111111000000111
# refmod: input A =        506, input B =  374111245, output OUT =  374111751
# refmod: input A = 00000000000000000000000111111010, input B = 00010110010011000111110000001101, output OUT = 00010110010011000111111000000111
# UVM_INFO @ 1665: uvm_test_top.env_h.comp [Comparator Match] 
# adder: input A =        718, input B = 1326665226, output OUT = 1326665944
# adder: input A = 00000000000000000000001011001110, input B = 01001111000100110100111000001010, output OUT = 01001111000100110101000011011000
# refmod: input A =        718, input B = 1326665226, output OUT = 1326665944
# refmod: input A = 00000000000000000000001011001110, input B = 01001111000100110100111000001010, output OUT = 01001111000100110101000011011000
# UVM_INFO @ 1695: uvm_test_top.env_h.comp [Comparator Match] 
# adder: input A =        356, input B = 1180113620, output OUT = 1180113976
# adder: input A = 00000000000000000000000101100100, input B = 01000110010101110001101011010100, output OUT = 01000110010101110001110000111000
# refmod: input A =        356, input B = 1180113620, output OUT = 1180113976
# refmod: input A = 00000000000000000000000101100100, input B = 01000110010101110001101011010100, output OUT = 01000110010101110001110000111000
# UVM_INFO @ 1725: uvm_test_top.env_h.comp [Comparator Match] 
# adder: input A =        394, input B =  249634349, output OUT =  249634743
# adder: input A = 00000000000000000000000110001010, input B = 00001110111000010001111000101101, output OUT = 00001110111000010001111110110111
# refmod: input A =        394, input B =  249634349, output OUT =  249634743
# refmod: input A = 00000000000000000000000110001010, input B = 00001110111000010001111000101101, output OUT = 00001110111000010001111110110111
# UVM_INFO @ 1755: uvm_test_top.env_h.comp [Comparator Match] 
# adder: input A =        653, input B =  821141790, output OUT =  821142443
# adder: input A = 00000000000000000000001010001101, input B = 00110000111100011010000100011110, output OUT = 00110000111100011010001110101011
# refmod: input A =        653, input B =  821141790, output OUT =  821142443
# refmod: input A = 00000000000000000000001010001101, input B = 00110000111100011010000100011110, output OUT = 00110000111100011010001110101011
# UVM_INFO @ 1785: uvm_test_top.env_h.comp [Comparator Match] 
# adder: input A =         89, input B = 1735826975, output OUT = 1735827064
# adder: input A = 00000000000000000000000001011001, input B = 01100111011101101001111000011111, output OUT = 01100111011101101001111001111000
# refmod: input A =         89, input B = 1735826975, output OUT = 1735827064
# refmod: input A = 00000000000000000000000001011001, input B = 01100111011101101001111000011111, output OUT = 01100111011101101001111001111000
# UVM_INFO @ 1815: uvm_test_top.env_h.comp [Comparator Match] 
# adder: input A =        501, input B = 1193419746, output OUT = 1193420247
# adder: input A = 00000000000000000000000111110101, input B = 01000111001000100010001111100010, output OUT = 01000111001000100010010111010111
# refmod: input A =        501, input B = 1193419746, output OUT = 1193420247
# refmod: input A = 00000000000000000000000111110101, input B = 01000111001000100010001111100010, output OUT = 01000111001000100010010111010111
# UVM_INFO @ 1845: uvm_test_top.env_h.comp [Comparator Match] 
# adder: input A =        923, input B = 1743994555, output OUT = 1743995478
# adder: input A = 00000000000000000000001110011011, input B = 01100111111100110011111010111011, output OUT = 01100111111100110100001001010110
# refmod: input A =        923, input B = 1743994555, output OUT = 1743995478
# refmod: input A = 00000000000000000000001110011011, input B = 01100111111100110011111010111011, output OUT = 01100111111100110100001001010110
# UVM_INFO @ 1875: uvm_test_top.env_h.comp [Comparator Match] 
# adder: input A =        590, input B = 1391763848, output OUT = 1391764438
# adder: input A = 00000000000000000000001001001110, input B = 01010010111101001010000110001000, output OUT = 01010010111101001010001111010110
# refmod: input A =        590, input B = 1391763848, output OUT = 1391764438
# refmod: input A = 00000000000000000000001001001110, input B = 01010010111101001010000110001000, output OUT = 01010010111101001010001111010110
# UVM_INFO @ 1905: uvm_test_top.env_h.comp [Comparator Match] 
# adder: input A =        366, input B =  533341166, output OUT =  533341532
# adder: input A = 00000000000000000000000101101110, input B = 00011111110010100010001111101110, output OUT = 00011111110010100010010101011100
# refmod: input A =        366, input B =  533341166, output OUT =  533341532
