Lab4/Dadda/sim/transcript.txt
# //  Questa Sim-64
# //  Version 10.7c linux_x86_64 Aug 17 2018
# //
# //  Copyright 1991-2018 Mentor Graphics Corporation
# //  All Rights Reserved.
# //
# //  QuestaSim and its associated documentation contain trade
# //  secrets and commercial or financial information that are the property of
# //  Mentor Graphics Corporation and are privileged, confidential,
# //  and exempt from disclosure under the Freedom of Information Act,
# //  5 U.S.C. Section 552. Furthermore, this information
# //  is prohibited from disclosure under the Trade Secrets Act,
# //  18 U.S.C. Section 1905.
# //
do sim.do
# QuestaSim-64 vcom 10.7c Compiler 2018.08 Aug 17 2018
# Start time: 16:56:55 on Apr 07,2021
# vcom -reportprogress 300 ../src/half_adder.vhd 
# -- Loading package STANDARD
# -- Loading package TEXTIO
# -- Loading package std_logic_1164
# -- Loading package std_logic_arith
# -- Compiling entity half_adder
# -- Compiling architecture Behavioral of half_adder
# End time: 16:56:56 on Apr 07,2021, Elapsed time: 0:00:01
# Errors: 0, Warnings: 0
# QuestaSim-64 vcom 10.7c Compiler 2018.08 Aug 17 2018
# Start time: 16:56:56 on Apr 07,2021
# vcom -reportprogress 300 ../src/full_adder.vhd 
# -- Loading package STANDARD
# -- Loading package TEXTIO
# -- Loading package std_logic_1164
# -- Loading package std_logic_arith
# -- Compiling entity full_adder
# -- Compiling architecture Behavioral of full_adder
# End time: 16:56:56 on Apr 07,2021, Elapsed time: 0:00:00
# Errors: 0, Warnings: 0
# QuestaSim-64 vcom 10.7c Compiler 2018.08 Aug 17 2018
# Start time: 16:56:56 on Apr 07,2021
# vcom -reportprogress 300 ../src/multiplier_mbe_dadda.vhd 
# -- Loading package STANDARD
# -- Loading package TEXTIO
# -- Loading package std_logic_1164
# -- Loading package std_logic_arith
# -- Compiling entity multiplier_mbe_dadda
# -- Compiling architecture Structural of multiplier_mbe_dadda
# End time: 16:56:57 on Apr 07,2021, Elapsed time: 0:00:01
# Errors: 0, Warnings: 0
# QuestaSim-64 vlog 10.7c Compiler 2018.08 Aug 17 2018
# Start time: 16:56:57 on Apr 07,2021
# vlog -reportprogress 300 -sv ../tb/top.sv 
# ** Note: (vlog-2286) ../tb/top.sv(2): Using implicit +incdir+/software/mentor/questa10.7c/questasim/uvm-1.1d/../verilog_src/uvm-1.1d/src from import uvm_pkg
# -- Compiling package top_sv_unit
# -- Importing package mtiUvm.uvm_pkg (uvm-1.1d Built-in)
# ** Warning: ../tb/monitor.sv(49): (vlog-2240) Treating stand-alone use of function 'begin_tr' as an implicit VOID cast.
# ** Warning: ../tb/monitor_out.sv(48): (vlog-2240) Treating stand-alone use of function 'begin_tr' as an implicit VOID cast.
# -- Compiling module adder
# -- Compiling interface dut_if
# -- Compiling module DUT
# -- Compiling module top
# 
# Top level modules:
# 	adder
# 	top
# End time: 16:57:02 on Apr 07,2021, Elapsed time: 0:00:05
# Errors: 0, Warnings: 2
# vsim top 
# Start time: 16:57:02 on Apr 07,2021
# ** Note: (vsim-8009) Loading existing optimized design _opt
# Loading sv_std.std
# Loading mtiUvm.uvm_pkg
# Loading work.top_sv_unit(fast)
# Loading work.top(fast)
# Loading work.DUT(fast)
# Loading mtiUvm.questa_uvm_pkg(fast)
# Loading work.dut_if(fast)
# Loading std.standard
# Loading std.textio(body)
# Loading ieee.std_logic_1164(body)
# Loading ieee.std_logic_arith(body)
# Loading work.multiplier_mbe_dadda(structural)#1
# ** Warning: (vsim-3839) Variable '/top/out/data', driven via a port connection, is multiply driven. See ../src/DUT.sv(3).
#    Time: 0 ns  Iteration: 0  Instance: /top/sum File: ../src/DUT.sv Line: 9
# ** Warning: (vsim-3764) Stand-alone call to function 'begin_tr' treated as implicit void cast.
#    Time: 0 ns  Iteration: 0  Region: /top_sv_unit::driver File: ../tb/driver.sv Line: 67
# Loading /software/mentor/questa10.7c/questasim/uvm-1.1d/linux_x86_64/uvm_dpi.so
# ----------------------------------------------------------------
# UVM-1.1d
# (C) 2007-2013 Mentor Graphics Corporation
# (C) 2007-2013 Cadence Design Systems, Inc.
# (C) 2006-2013 Synopsys, Inc.
# (C) 2011-2013 Cypress Semiconductor Corp.
# ----------------------------------------------------------------
# 
#   ***********       IMPORTANT RELEASE NOTES         ************
# 
#   You are using a version of the UVM library that has been compiled
#   with `UVM_NO_DEPRECATED undefined.
#   See http://www.eda.org/svdb/view.php?id=3313 for more details.
# 
#   You are using a version of the UVM library that has been compiled
#   with `UVM_OBJECT_MUST_HAVE_CONSTRUCTOR undefined.
#   See http://www.eda.org/svdb/view.php?id=3770 for more details.
# 
#       (Specify +UVM_NO_RELNOTES to turn off this notice)
# 
# UVM_INFO verilog_src/questa_uvm_pkg-1.2/src/questa_uvm_pkg.sv(215) @ 0: reporter [Questa UVM] QUESTA_UVM-1.2.3
# UVM_INFO verilog_src/questa_uvm_pkg-1.2/src/questa_uvm_pkg.sv(216) @ 0: reporter [Questa UVM]  questa_uvm::init(+struct)
# ** Warning: There is an 'U'|'X'|'W'|'Z'|'-' in an arithmetic operand, the result will be 'X'(es).
#    Time: 0 ns  Iteration: 0  Instance: /top/sum/mpy_under_test
# ** Warning: There is an 'U'|'X'|'W'|'Z'|'-' in an arithmetic operand, the result will be 'X'(es).
#    Time: 0 ns  Iteration: 0  Instance: /top/sum/mpy_under_test
# UVM_INFO @ 0: reporter [RNTST] Running test simple_test...
# ** Warning: There is an 'U'|'X'|'W'|'Z'|'-' in an arithmetic operand, the result will be 'X'(es).
#    Time: 0 ns  Iteration: 1  Instance: /top/sum/mpy_under_test
# ** Warning: There is an 'U'|'X'|'W'|'Z'|'-' in an arithmetic operand, the result will be 'X'(es).
#    Time: 0 ns  Iteration: 1  Instance: /top/sum/mpy_under_test
# ** Warning: There is an 'U'|'X'|'W'|'Z'|'-' in an arithmetic operand, the result will be 'X'(es).
#    Time: 0 ns  Iteration: 8  Instance: /top/sum/mpy_under_test
# ** Warning: There is an 'U'|'X'|'W'|'Z'|'-' in an arithmetic operand, the result will be 'X'(es).
#    Time: 0 ns  Iteration: 8  Instance: /top/sum/mpy_under_test
# ** Warning: There is an 'U'|'X'|'W'|'Z'|'-' in an arithmetic operand, the result will be 'X'(es).
#    Time: 0 ns  Iteration: 9  Instance: /top/sum/mpy_under_test
# ** Warning: There is an 'U'|'X'|'W'|'Z'|'-' in an arithmetic operand, the result will be 'X'(es).
#    Time: 0 ns  Iteration: 9  Instance: /top/sum/mpy_under_test
# ** Warning: There is an 'U'|'X'|'W'|'Z'|'-' in an arithmetic operand, the result will be 'X'(es).
#    Time: 0 ns  Iteration: 10  Instance: /top/sum/mpy_under_test
# ** Warning: There is an 'U'|'X'|'W'|'Z'|'-' in an arithmetic operand, the result will be 'X'(es).
#    Time: 0 ns  Iteration: 10  Instance: /top/sum/mpy_under_test
# ** Warning: There is an 'U'|'X'|'W'|'Z'|'-' in an arithmetic operand, the result will be 'X'(es).
#    Time: 0 ns  Iteration: 11  Instance: /top/sum/mpy_under_test
# ** Warning: There is an 'U'|'X'|'W'|'Z'|'-' in an arithmetic operand, the result will be 'X'(es).
#    Time: 0 ns  Iteration: 11  Instance: /top/sum/mpy_under_test
# ** Warning: There is an 'U'|'X'|'W'|'Z'|'-' in an arithmetic operand, the result will be 'X'(es).
#    Time: 0 ns  Iteration: 12  Instance: /top/sum/mpy_under_test
# ** Warning: There is an 'U'|'X'|'W'|'Z'|'-' in an arithmetic operand, the result will be 'X'(es).
#    Time: 0 ns  Iteration: 12  Instance: /top/sum/mpy_under_test
# ** Warning: There is an 'U'|'X'|'W'|'Z'|'-' in an arithmetic operand, the result will be 'X'(es).
#    Time: 0 ns  Iteration: 13  Instance: /top/sum/mpy_under_test
# ** Warning: There is an 'U'|'X'|'W'|'Z'|'-' in an arithmetic operand, the result will be 'X'(es).
#    Time: 0 ns  Iteration: 13  Instance: /top/sum/mpy_under_test
# ** Warning: There is an 'U'|'X'|'W'|'Z'|'-' in an arithmetic operand, the result will be 'X'(es).
#    Time: 0 ns  Iteration: 14  Instance: /top/sum/mpy_under_test
# ** Warning: There is an 'U'|'X'|'W'|'Z'|'-' in an arithmetic operand, the result will be 'X'(es).
#    Time: 0 ns  Iteration: 14  Instance: /top/sum/mpy_under_test
# ** Warning: There is an 'U'|'X'|'W'|'Z'|'-' in an arithmetic operand, the result will be 'X'(es).
#    Time: 25 ns  Iteration: 13  Instance: /top/sum/mpy_under_test
# ** Warning: There is an 'U'|'X'|'W'|'Z'|'-' in an arithmetic operand, the result will be 'X'(es).
#    Time: 25 ns  Iteration: 13  Instance: /top/sum/mpy_under_test
# ** Warning: There is an 'U'|'X'|'W'|'Z'|'-' in an arithmetic operand, the result will be 'X'(es).
#    Time: 25 ns  Iteration: 14  Instance: /top/sum/mpy_under_test
# ** Warning: There is an 'U'|'X'|'W'|'Z'|'-' in an arithmetic operand, the result will be 'X'(es).
#    Time: 25 ns  Iteration: 14  Instance: /top/sum/mpy_under_test
# ** Warning: There is an 'U'|'X'|'W'|'Z'|'-' in an arithmetic operand, the result will be 'X'(es).
#    Time: 25 ns  Iteration: 15  Instance: /top/sum/mpy_under_test
# ** Warning: There is an 'U'|'X'|'W'|'Z'|'-' in an arithmetic operand, the result will be 'X'(es).
#    Time: 25 ns  Iteration: 15  Instance: /top/sum/mpy_under_test
# ** Warning: There is an 'U'|'X'|'W'|'Z'|'-' in an arithmetic operand, the result will be 'X'(es).
#    Time: 25 ns  Iteration: 16  Instance: /top/sum/mpy_under_test
# ** Warning: There is an 'U'|'X'|'W'|'Z'|'-' in an arithmetic operand, the result will be 'X'(es).
#    Time: 25 ns  Iteration: 16  Instance: /top/sum/mpy_under_test
# ** Warning: There is an 'U'|'X'|'W'|'Z'|'-' in an arithmetic operand, the result will be 'X'(es).
#    Time: 25 ns  Iteration: 17  Instance: /top/sum/mpy_under_test
# ** Warning: There is an 'U'|'X'|'W'|'Z'|'-' in an arithmetic operand, the result will be 'X'(es).
#    Time: 25 ns  Iteration: 17  Instance: /top/sum/mpy_under_test
# ** Warning: There is an 'U'|'X'|'W'|'Z'|'-' in an arithmetic operand, the result will be 'X'(es).
#    Time: 25 ns  Iteration: 18  Instance: /top/sum/mpy_under_test
# ** Warning: There is an 'U'|'X'|'W'|'Z'|'-' in an arithmetic operand, the result will be 'X'(es).
#    Time: 25 ns  Iteration: 18  Instance: /top/sum/mpy_under_test
# adder: input A =  9593817, input B =  7349757, output OUT =  70512223652469
# adder: input A = 100100100110001111011001, input B = 011100000010010111111101, output OUT = 010000000010000101101000000010110000101001110101
# refmod: input A =     9593817, input B =     7349757, output OUT =  1745554037
# refmod: input A = 00000000100100100110001111011001, input B = 00000000011100000010010111111101, output OUT = 01101000000010110000101001110101
# UVM_INFO @ 45: uvm_test_top.env_h.comp [Comparator Match] 
# adder: input A = 13270667, input B =  1210868, output OUT =  16069026008956
# adder: input A = 110010100111111010001011, input B = 000100100111100111110100, output OUT = 000011101001110101011100100101100100111101111100
# refmod: input A =    13270667, input B =     1210868, output OUT =  1553354620
# refmod: input A = 00000000110010100111111010001011, input B = 00000000000100100111100111110100, output OUT = 01011100100101100100111101111100
# UVM_INFO @ 75: uvm_test_top.env_h.comp [Comparator Match] 
# adder: input A =  9220468, input B =  4524314, output OUT =  41716292458952
# adder: input A = 100011001011000101110100, input B = 010001010000100100011010, output OUT = 001001011111000011010100110010110001100111001000
# refmod: input A =     9220468, input B =     4524314, output OUT =  -724887096
# refmod: input A = 00000000100011001011000101110100, input B = 00000000010001010000100100011010, output OUT = 11010100110010110001100111001000
# UVM_INFO @ 105: uvm_test_top.env_h.comp [Comparator Match] 
# adder: input A =  3208844, input B =  6164079, output OUT =  19779567914676
# adder: input A = 001100001111011010001100, input B = 010111100000111001101111, output OUT = 000100011111110101001010000111101000111010110100
# refmod: input A =     3208844, input B =     6164079, output OUT =  1243516596
# refmod: input A = 00000000001100001111011010001100, input B = 00000000010111100000111001101111, output OUT = 01001010000111101000111010110100
# UVM_INFO @ 135: uvm_test_top.env_h.comp [Comparator Match] 
# adder: input A = 14551375, input B =  7964141, output OUT = 115889202243875
# adder: input A = 110111100000100101001111, input B = 011110011000010111101101, output OUT = 011010010110011010001110101110111010100100100011
# refmod: input A =    14551375, input B =     7964141, output OUT = -1900304093
# refmod: input A = 00000000110111100000100101001111, input B = 00000000011110011000010111101101, output OUT = 10001110101110111010100100100011
# UVM_INFO @ 165: uvm_test_top.env_h.comp [Comparator Match] 
# adder: input A =  6194966, input B =  4312052, output OUT =  26713015530232
# adder: input A = 010111101000011100010110, input B = 010000011100101111110100, output OUT = 000110000100101110011011110011010011001011111000
# refmod: input A =     6194966, input B =     4312052, output OUT = -1681050888
# refmod: input A = 00000000010111101000011100010110, input B = 00000000010000011100101111110100, output OUT = 10011011110011010011001011111000
# UVM_INFO @ 195: uvm_test_top.env_h.comp [Comparator Match] 
# adder: input A =  3138395, input B =  4639693, output OUT =  14561189312735
# adder: input A = 001011111110001101011011, input B = 010001101100101111001101, output OUT = 000011010011111001001010100001000011100011011111
# refmod: input A =     3138395, input B =     4639693, output OUT =  1250179295
# refmod: input A = 00000000001011111110001101011011, input B = 00000000010001101100101111001101, output OUT = 01001010100001000011100011011111
# UVM_INFO @ 225: uvm_test_top.env_h.comp [Comparator Match] 
# adder: input A = 14794113, input B = 15801392, output OUT = 233767578805296
# adder: input A = 111000011011110110000001, input B = 111100010001110000110000, output OUT = 110101001001110001000001011111101010010000110000
# refmod: input A =    14794113, input B =    15801392, output OUT =  1098818608
# refmod: input A = 00000000111000011011110110000001, input B = 00000000111100010001110000110000, output OUT = 01000001011111101010010000110000
# UVM_INFO @ 255: uvm_test_top.env_h.comp [Comparator Match] 
# adder: input A = 13921116, input B =  6639677, output OUT =  92431713719532
# adder: input A = 110101000110101101011100, input B = 011001010101000000111101, output OUT = 010101000001000011101111011101100101010011101100
# refmod: input A =    13921116, input B =     6639677, output OUT =  -277457684
# refmod: input A = 00000000110101000110101101011100, input B = 00000000011001010101000000111101, output OUT = 11101111011101100101010011101100
# UVM_INFO @ 285: uvm_test_top.env_h.comp [Comparator Match] 
# adder: input A =  7642788, input B =  2251081, output OUT =  17204534853828
# adder: input A = 011101001001111010100100, input B = 001000100101100101001001, output OUT = 000011111010010110111110001100000100000011000100
# refmod: input A =     7642788, input B =     2251081, output OUT = -1104133948
# refmod: input A = 00000000011101001001111010100100, input B = 00000000001000100101100101001001, output OUT = 10111110001100000100000011000100
# UVM_INFO @ 315: uvm_test_top.env_h.comp [Comparator Match] 
# adder: input A = 15049465, input B =  2625266, output OUT =  39508848782690
# adder: input A = 111001011010001011111001, input B = 001010000000111011110010, output OUT = 001000111110111011011110111001011010110101100010
# refmod: input A =    15049465, input B =     2625266, output OUT =  -555373214
# refmod: input A = 00000000111001011010001011111001, input B = 00000000001010000000111011110010, output OUT = 11011110111001011010110101100010
# UVM_INFO @ 345: uvm_test_top.env_h.comp [Comparator Match] 
# adder: input A =  4946797, input B =  9093000, output OUT =  44981225121000
# adder: input A = 010010110111101101101101, input B = 100010101011111110001000, output OUT = 001010001110100100000001111100011110010011101000
# refmod: input A =     4946797, input B =     9093000, output OUT =    32629992
# refmod: input A = 00000000010010110111101101101101, input B = 00000000100010101011111110001000, output OUT = 00000001111100011110010011101000
# UVM_INFO @ 375: uvm_test_top.env_h.comp [Comparator Match] 
# adder: input A =  1718371, input B = 14155491, output OUT =  24324385225161
# adder: input A = 000110100011100001100011, input B = 110101111111111011100011, output OUT = 000101100001111101110110010101110011100111001001
# refmod: input A =     1718371, input B =    14155491, output OUT =  1985427913
# refmod: input A = 00000000000110100011100001100011, input B = 00000000110101111111111011100011, output OUT = 01110110010101110011100111001001
# UVM_INFO @ 405: uvm_test_top.env_h.comp [Comparator Match] 
# adder: input A =  7331811, input B = 15298643, output OUT = 112166759032473
# adder: input A = 011011111101111111100011, input B = 111010010111000001010011, output OUT = 011001100000001111011011110100111110011010011001
# refmod: input A =     7331811, input B =    15298643, output OUT =  -606869863
# refmod: input A = 00000000011011111101111111100011, input B = 00000000111010010111000001010011, output OUT = 11011011110100111110011010011001
# UVM_INFO @ 435: uvm_test_top.env_h.comp [Comparator Match] 
# adder: input A =  8066849, input B =  2241593, output OUT =  18082592250457
# adder: input A = 011110110001011100100001, input B = 001000100011010000111001, output OUT = 000100000111001000101110011111001101101001011001
# refmod: input A =     8066849, input B =     2241593, output OUT =   779934297
# refmod: input A = 00000000011110110001011100100001, input B = 00000000001000100011010000111001, output OUT = 00101110011111001101101001011001
# UVM_INFO @ 465: uvm_test_top.env_h.comp [Comparator Match] 
# adder: input A =  2696478, input B =  7784390, output OUT =  20990436378420
# adder: input A = 001010010010010100011110, input B = 011101101100011111000110, output OUT = 000100110001011100110111100000010000011100110100
# refmod: input A =     2696478, input B =     7784390, output OUT =   931202868
# refmod: input A = 00000000001010010010010100011110, input B = 00000000011101101100011111000110, output OUT = 00110111100000010000011100110100
# UVM_INFO @ 495: uvm_test_top.env_h.comp [Comparator Match] 
# adder: input A =  3768865, input B = 10327131, output OUT =  38921562576315
# adder: input A = 001110011000001000100001, input B = 100111011001010001011011, output OUT = 001000110110011000100001111010010101010110111011
# refmod: input A =     3768865, input B =    10327131, output OUT =   568939963
# refmod: input A = 00000000001110011000001000100001, input B = 00000000100111011001010001011011, output OUT = 00100001111010010101010110111011
# UVM_INFO @ 525: uvm_test_top.env_h.comp [Comparator Match] 
# adder: input A =  8486362, input B =  1346258, output OUT =  11424832733396
# adder: input A = 100000010111110111011010, input B = 000101001000101011010010, output OUT = 000010100110010000001101000110001100000011010100
# refmod: input A =     8486362, input B =     1346258, output OUT =   219726036
# refmod: input A = 00000000100000010111110111011010, input B = 00000000000101001000101011010010, output OUT = 00001101000110001100000011010100
# UVM_INFO @ 555: uvm_test_top.env_h.comp [Comparator Match] 
# adder: input A =  1231807, input B =  8351214, output OUT =  10287083863698
# adder: input A = 000100101100101110111111, input B = 011111110110110111101110, output OUT = 000010010101101100100101111110101011111010010010
# refmod: input A =     1231807, input B =     8351214, output OUT =   637189778
# refmod: input A = 00000000000100101100101110111111, input B = 00000000011111110110110111101110, output OUT = 00100101111110101011111010010010
# UVM_INFO @ 585: uvm_test_top.env_h.comp [Comparator Match] 
# adder: input A = 13858303, input B = 15077315, output OUT = 208945999696445
# adder: input A = 110100110111010111111111, input B = 111001100000111111000011, output OUT = 101111100000100100001000000101101101001000111101
# refmod: input A =    13858303, input B =    15077315, output OUT =   135713341
# refmod: input A = 00000000110100110111010111111111, input B = 00000000111001100000111111000011, output OUT = 00001000000101101101001000111101
# UVM_INFO @ 615: uvm_test_top.env_h.comp [Comparator Match] 
# adder: input A = 13485713, input B =  9236699, output OUT = 124563471781387
# adder: input A = 110011011100011010010001, input B = 100011001111000011011011, output OUT = 011100010100101000110001011111001100111000001011
# refmod: input A =    13485713, input B =     9236699, output OUT =   830262795
# refmod: input A = 00000000110011011100011010010001, input B = 00000000100011001111000011011011, output OUT = 00110001011111001100111000001011
# UVM_INFO @ 645: uvm_test_top.env_h.comp [Comparator Match] 
# adder: input A =  6369387, input B =  4003078, output OUT =  25497152973186
# adder: input A = 011000010011000001101011, input B = 001111010001010100000110, output OUT = 000101110011000010000100101111101110100110000010
# refmod: input A =     6369387, input B =     4003078, output OUT = -2067863166
# refmod: input A = 00000000011000010011000001101011, input B = 00000000001111010001010100000110, output OUT = 10000100101111101110100110000010
# UVM_INFO @ 675: uvm_test_top.env_h.comp [Comparator Match] 
# adder: input A =  7798597, input B =  9785447, output OUT =  76312757617859
# adder: input A = 011101101111111101000101, input B = 100101010101000001100111, output OUT = 010001010110011111110010110011110100010011000011
# refmod: input A =     7798597, input B =     9785447, output OUT =  -221297469
# refmod: input A = 00000000011101101111111101000101, input B = 00000000100101010101000001100111, output OUT = 11110010110011110100010011000011
# UVM_INFO @ 705: uvm_test_top.env_h.comp [Comparator Match] 
# adder: input A = 14874963, input B =  8045511, output OUT = 119676678441093
# adder: input A = 111000101111100101010011, input B = 011110101100001111000111, output OUT = 011011001101100001100101111010000000100010000101
# refmod: input A =    14874963, input B =     8045511, output OUT =  1709705349
# refmod: input A = 00000000111000101111100101010011, input B = 00000000011110101100001111000111, output OUT = 01100101111010000000100010000101
# UVM_INFO @ 735: uvm_test_top.env_h.comp [Comparator Match] 
# adder: input A =  1623663, input B =  1492892, output OUT =   2423953503396
# adder: input A = 000110001100011001101111, input B = 000101101100011110011100, output OUT = 000000100011010001011110111000110011010010100100
# refmod: input A =     1623663, input B =     1492892, output OUT =  1591948452
# refmod: input A = 00000000000110001100011001101111, input B = 00000000000101101100011110011100, output OUT = 01011110111000110011010010100100
# UVM_INFO @ 765: uvm_test_top.env_h.comp [Comparator Match] 
# adder: input A =    51781, input B =  4746790, output OUT =    245793532990
# adder: input A = 000000001100101001000101, input B = 010010000110111000100110, output OUT = 000000000011100100111010011011111010110000111110
# refmod: input A =       51781, input B =     4746790, output OUT =   980397118
# refmod: input A = 00000000000000001100101001000101, input B = 00000000010010000110111000100110, output OUT = 00111010011011111010110000111110
# UVM_INFO @ 795: uvm_test_top.env_h.comp [Comparator Match] 
# adder: input A =   560326, input B =  4917346, output OUT =   2755316814796
# adder: input A = 000010001000110011000110, input B = 010010110000100001100010, output OUT = 000000101000000110000101101011100001001111001100
# refmod: input A =      560326, input B =     4917346, output OUT = -2052189236
# refmod: input A = 00000000000010001000110011000110, input B = 00000000010010110000100001100010, output OUT = 10000101101011100001001111001100
# UVM_INFO @ 825: uvm_test_top.env_h.comp [Comparator Match] 
# adder: input A =  4514294, input B =  9344931, output OUT =  42185765943714
# adder: input A = 010001001110000111110110, input B = 100011101001011110100011, output OUT = 001001100101111000100011100101111111100110100010
# refmod: input A =     4514294, input B =     9344931, output OUT =   597162402
# refmod: input A = 00000000010001001110000111110110, input B = 00000000100011101001011110100011, output OUT = 00100011100101111111100110100010
# UVM_INFO @ 855: uvm_test_top.env_h.comp [Comparator Match] 
# adder: input A =  3746114, input B =  4095870, output OUT =  15343595949180
# adder: input A = 001110010010100101000010, input B = 001111100111111101111110, output OUT = 000011011111010001110101100101100000110001111100
# refmod: input A =     3746114, input B =     4095870, output OUT =  1972767868
# refmod: input A = 00000000001110010010100101000010, input B = 00000000001111100111111101111110, output OUT = 01110101100101100000110001111100
# UVM_INFO @ 885: uvm_test_top.env_h.comp [Comparator Match] 
# adder: input A =  9710114, input B =  9024469, output OUT =  87628622779466
# adder: input A = 100101000010101000100010, input B = 100010011011001111010101, output OUT = 010011111011001010100000111011101101010001001010
# refmod: input A =     9710114, input B =     9024469, output OUT = -1594960822
# refmod: input A = 00000000100101000010101000100010, input B = 00000000100010011011001111010101, output OUT = 10100000111011101101010001001010
# UVM_INFO @ 915: uvm_test_top.env_h.comp [Comparator Match] 
# adder: input A = 14869277, input B =  7722420, output OUT = 114826802090340
# adder: input A = 111000101110001100011101, input B = 011101011101010110110100, output OUT = 011010000110111100110010101111111101000101100100
# refmod: input A =    14869277, input B =     7722420, output OUT =   851431780
# refmod: input A = 00000000111000101110001100011101, input B = 00000000011101011101010110110100, output OUT = 00110010101111111101000101100100
# UVM_INFO @ 945: uvm_test_top.env_h.comp [Comparator Match] 
# adder: input A = 13732132, input B =  5734959, output OUT =  78753214002588
# adder: input A = 110100011000100100100100, input B = 010101111000001000101111, output OUT = 010001111010000000101001010110000111010110011100
# refmod: input A =    13732132, input B =     5734959, output OUT =   693663132
# refmod: input A = 00000000110100011000100100100100, input B = 00000000010101111000001000101111, output OUT = 00101001010110000111010110011100
# UVM_INFO @ 975: uvm_test_top.env_h.comp [Comparator Match] 
# adder: input A =  8004899, input B =  2416426, output OUT =  19343246070974
# adder: input A = 011110100010010100100011, input B = 001001001101111100101010, output OUT = 000100011001011110110011010011111001010010111110
# refmod: input A =     8004899, input B =     2416426, output OUT = -1286630210
# refmod: input A = 00000000011110100010010100100011, input B = 00000000001001001101111100101010, output OUT = 10110011010011111001010010111110
# UVM_INFO @ 1005: uvm_test_top.env_h.comp [Comparator Match] 
# adder: input A =  1373019, input B = 10006245, output OUT =  13738764503655
# adder: input A = 000101001111001101011011, input B = 100110001010111011100101, output OUT = 000011000111111011001110001011011000101001100111
# refmod: input A =     1373019, input B =    10006245, output OUT =  -835876249
# refmod: input A = 00000000000101001111001101011011, input B = 00000000100110001010111011100101, output OUT = 11001110001011011000101001100111
# UVM_INFO @ 1035: uvm_test_top.env_h.comp [Comparator Match] 
# adder: input A = 15180267, input B =  2488016, output OUT =  37768747180272
# adder: input A = 111001111010000111101011, input B = 001001011111011011010000, output OUT = 001000100101100110111000110000100110000011110000
# refmod: input A =    15180267, input B =     2488016, output OUT = -1195220752
# refmod: input A = 00000000111001111010000111101011, input B = 00000000001001011111011011010000, output OUT = 10111000110000100110000011110000
# UVM_INFO @ 1065: uvm_test_top.env_h.comp [Comparator Match] 
# adder: input A = 15867096, input B =  2643881, output OUT =  41950713639576
# adder: input A = 111100100001110011011000, input B = 001010000101011110101001, output OUT = 001001100010011101101001011000100111001010011000
# refmod: input A =    15867096, input B =     2643881, output OUT =  1768059544
# refmod: input A = 00000000111100100001110011011000, input B = 00000000001010000101011110101001, output OUT = 01101001011000100111001010011000
# UVM_INFO @ 1095: uvm_test_top.env_h.comp [Comparator Match] 
# adder: input A = 11773613, input B =  1311941, output OUT =  15446285612833
# adder: input A = 101100111010011010101101, input B = 000101000000010011000101, output OUT = 000011100000110001011110010111011111011100100001
# refmod: input A =    11773613, input B =     1311941, output OUT =  1583216417
# refmod: input A = 00000000101100111010011010101101, input B = 00000000000101000000010011000101, output OUT = 01011110010111011111011100100001
# UVM_INFO @ 1125: uvm_test_top.env_h.comp [Comparator Match] 
# adder: input A =  2126001, input B = 13905051, output OUT =  29562152331051
# adder: input A = 001000000111000010110001, input B = 110101000010110010011011, output OUT = 000110101110001011111001100101101010011100101011
# refmod: input A =     2126001, input B =    13905051, output OUT =  -107567317
# refmod: input A = 00000000001000000111000010110001, input B = 00000000110101000010110010011011, output OUT = 11111001100101101010011100101011
# UVM_INFO @ 1155: uvm_test_top.env_h.comp [Comparator Match] 
# adder: input A =  6238596, input B =  5570819, output OUT =  34754089130124
# adder: input A = 010111110011000110000100, input B = 010101010000000100000011, output OUT = 000111111001101111010001001000110001100010001100
# refmod: input A =     6238596, input B =     5570819, output OUT =  -786229108
# refmod: input A = 00000000010111110011000110000100, input B = 00000000010101010000000100000011, output OUT = 11010001001000110001100010001100
# UVM_INFO @ 1185: uvm_test_top.env_h.comp [Comparator Match] 
# adder: input A = 10137118, input B = 13280962, output OUT = 134630678947516
# adder: input A = 100110101010111000011110, input B = 110010101010011011000010, output OUT = 011110100111001000100101110010110110011010111100
# refmod: input A =    10137118, input B =    13280962, output OUT =   634087100
# refmod: input A = 00000000100110101010111000011110, input B = 00000000110010101010011011000010, output OUT = 00100101110010110110011010111100
# UVM_INFO @ 1215: uvm_test_top.env_h.comp [Comparator Match] 
# adder: input A =   329404, input B =  4754500, output OUT =   1566151318000
# adder: input A = 000001010000011010111100, input B = 010010001000110001000100, output OUT = 000000010110110010100101111001001001100111110000
# refmod: input A =      329404, input B =     4754500, output OUT = -1511745040
# refmod: input A = 00000000000001010000011010111100, input B = 00000000010010001000110001000100, output OUT = 10100101111001001001100111110000
# UVM_INFO @ 1245: uvm_test_top.env_h.comp [Comparator Match] 
# adder: input A = 15695369, input B =  6343473, output OUT =  99563149476537
# adder: input A = 111011110111111000001001, input B = 011000001100101100110001, output OUT = 010110101000110101011010001010000100001010111001
# refmod: input A =    15695369, input B =     6343473, output OUT =  1512587961
# refmod: input A = 00000000111011110111111000001001, input B = 00000000011000001100101100110001, output OUT = 01011010001010000100001010111001
# UVM_INFO @ 1275: uvm_test_top.env_h.comp [Comparator Match] 
# adder: input A = 12149924, input B = 12425090, output OUT = 150963899193160
# adder: input A = 101110010110010010100100, input B = 101111011001011110000010, output OUT = 100010010100110100000101100101011101011101001000
# refmod: input A =    12149924, input B =    12425090, output OUT =    93706056
# refmod: input A = 00000000101110010110010010100100, input B = 00000000101111011001011110000010, output OUT = 00000101100101011101011101001000
# UVM_INFO @ 1305: uvm_test_top.env_h.comp [Comparator Match] 
# adder: input A =  8079250, input B =  9512004, output OUT =  76849858317000
# adder: input A = 011110110100011110010010, input B = 100100010010010001000100, output OUT = 010001011110010100000000100000011000101011001000
# refmod: input A =     8079250, input B =     9512004, output OUT =     8489672
# refmod: input A = 00000000011110110100011110010010, input B = 00000000100100010010010001000100, output OUT = 00000000100000011000101011001000
# UVM_INFO @ 1335: uvm_test_top.env_h.comp [Comparator Match] 
# adder: input A = 10110619, input B =  5912298, output OUT =  59776992492462
# adder: input A = 100110100100011010011011, input B = 010110100011011011101010, output OUT = 001101100101110111101010011001110011101110101110
# refmod: input A =    10110619, input B =     5912298, output OUT =  -362333266
# refmod: input A = 00000000100110100100011010011011, input B = 00000000010110100011011011101010, output OUT = 11101010011001110011101110101110
# UVM_INFO @ 1365: uvm_test_top.env_h.comp [Comparator Match] 
# adder: input A =  8310211, input B =  2607202, output OUT =  21666398739622
# adder: input A = 011111101100110111000011, input B = 001001111100100001100010, output OUT = 000100111011010010011010000000000001110010100110
# refmod: input A =     8310211, input B =     2607202, output OUT = -1711268698
# refmod: input A = 00000000011111101100110111000011, input B = 00000000001001111100100001100010, output OUT = 10011010000000000001110010100110
# UVM_INFO @ 1395: uvm_test_top.env_h.comp [Comparator Match] 
# adder: input A =  2668142, input B =  6050417, output OUT =  16143371715214
# adder: input A = 001010001011011001101110, input B = 010111000101001001110001, output OUT = 000011101010111010101011111011111100001010001110
# refmod: input A =     2668142, input B =     6050417, output OUT = -1410350450
# refmod: input A = 00000000001010001011011001101110, input B = 00000000010111000101001001110001, output OUT = 10101011111011111100001010001110
